
Running performance evaluation with FAST

Scene: Bark
Number of FAST Keypoints: 500
Comparing to: ../../testdata/Bark/img2.png
Number of FAST Keypoints: 500
        Matches found: 122      Misses:378      Ratio:24.4
Comparing to: ../../testdata/Bark/img3.png
Number of FAST Keypoints: 500
        Matches found: 84       Misses:416      Ratio:16.8
Comparing to: ../../testdata/Bark/img4.png
Number of FAST Keypoints: 500
        Matches found: 64       Misses:436      Ratio:12.8
Comparing to: ../../testdata/Bark/img5.png
Number of FAST Keypoints: 500
        Matches found: 43       Misses:457      Ratio:8.6
Comparing to: ../../testdata/Bark/img6.png
Number of FAST Keypoints: 500
        Matches found: 25       Misses:475      Ratio:5

Scene: Bikes
Number of FAST Keypoints: 500
Comparing to: ../../testdata/Bikes/img2.png
Number of FAST Keypoints: 500
        Matches found: 391      Misses:109      Ratio:78.2
Comparing to: ../../testdata/Bikes/img3.png
Number of FAST Keypoints: 500
        Matches found: 386      Misses:114      Ratio:77.2
Comparing to: ../../testdata/Bikes/img4.png
Number of FAST Keypoints: 500
        Matches found: 346      Misses:154      Ratio:69.2
Comparing to: ../../testdata/Bikes/img5.png
Number of FAST Keypoints: 500
        Matches found: 317      Misses:183      Ratio:63.4
Comparing to: ../../testdata/Bikes/img6.png
Number of FAST Keypoints: 331
        Matches found: 183      Misses:148      Ratio:55.287

Scene: Boat
Number of FAST Keypoints: 500
Comparing to: ../../testdata/Boat/img2.png
Number of FAST Keypoints: 500
        Matches found: 362      Misses:138      Ratio:72.4
Comparing to: ../../testdata/Boat/img3.png
Number of FAST Keypoints: 500
        Matches found: 297      Misses:203      Ratio:59.4
Comparing to: ../../testdata/Boat/img4.png
Number of FAST Keypoints: 500
        Matches found: 214      Misses:286      Ratio:42.8
Comparing to: ../../testdata/Boat/img5.png
Number of FAST Keypoints: 500
        Matches found: 146      Misses:354      Ratio:29.2
Comparing to: ../../testdata/Boat/img6.png
Number of FAST Keypoints: 500
        Matches found: 71       Misses:429      Ratio:14.2

Scene: Christchurch
Number of FAST Keypoints: 500
Comparing to: ../../testdata/Christchurch/img2.png
Number of FAST Keypoints: 500
        Matches found: 440      Misses:60       Ratio:88
Comparing to: ../../testdata/Christchurch/img3.png
Number of FAST Keypoints: 500
        Matches found: 446      Misses:54       Ratio:89.2
Comparing to: ../../testdata/Christchurch/img4.png
Number of FAST Keypoints: 500
        Matches found: 440      Misses:60       Ratio:88
Comparing to: ../../testdata/Christchurch/img5.png
Number of FAST Keypoints: 500
        Matches found: 410      Misses:90       Ratio:82
Comparing to: ../../testdata/Christchurch/img6.png
Number of FAST Keypoints: 500
        Matches found: 403      Misses:97       Ratio:80.6

Scene: Graf
Number of FAST Keypoints: 500
Comparing to: ../../testdata/Graf/img2.png
Number of FAST Keypoints: 500
        Matches found: 306      Misses:194      Ratio:61.2
Comparing to: ../../testdata/Graf/img3.png
Number of FAST Keypoints: 500
        Matches found: 262      Misses:238      Ratio:52.4
Comparing to: ../../testdata/Graf/img4.png
Number of FAST Keypoints: 500
        Matches found: 198      Misses:302      Ratio:39.6
Comparing to: ../../testdata/Graf/img5.png
Number of FAST Keypoints: 500
        Matches found: 120      Misses:380      Ratio:24
Comparing to: ../../testdata/Graf/img6.png
Number of FAST Keypoints: 500
        Matches found: 105      Misses:395      Ratio:21

Scene: Leuven
Number of FAST Keypoints: 500
Comparing to: ../../testdata/Leuven/img2.png
Number of FAST Keypoints: 500
        Matches found: 386      Misses:114      Ratio:77.2
Comparing to: ../../testdata/Leuven/img3.png
Number of FAST Keypoints: 500
        Matches found: 353      Misses:147      Ratio:70.6
Comparing to: ../../testdata/Leuven/img4.png
Number of FAST Keypoints: 500
        Matches found: 326      Misses:174      Ratio:65.2
Comparing to: ../../testdata/Leuven/img5.png
Number of FAST Keypoints: 500
        Matches found: 315      Misses:185      Ratio:63
Comparing to: ../../testdata/Leuven/img6.png
Number of FAST Keypoints: 500
        Matches found: 278      Misses:222      Ratio:55.6

Scene: Memorial
Number of FAST Keypoints: 500
Comparing to: ../../testdata/Memorial/img2.png
Number of FAST Keypoints: 500
        Matches found: 426      Misses:74       Ratio:85.2
Comparing to: ../../testdata/Memorial/img3.png
Number of FAST Keypoints: 500
        Matches found: 442      Misses:58       Ratio:88.4
Comparing to: ../../testdata/Memorial/img4.png
Number of FAST Keypoints: 500
        Matches found: 373      Misses:127      Ratio:74.6
Comparing to: ../../testdata/Memorial/img5.png
Number of FAST Keypoints: 500
        Matches found: 251      Misses:249      Ratio:50.2
Comparing to: ../../testdata/Memorial/img6.png
Number of FAST Keypoints: 500
        Matches found: 387      Misses:113      Ratio:77.4

Scene: Trees
Number of FAST Keypoints: 500
Comparing to: ../../testdata/Trees/img2.png
Number of FAST Keypoints: 500
        Matches found: 352      Misses:148      Ratio:70.4
Comparing to: ../../testdata/Trees/img3.png
Number of FAST Keypoints: 500
        Matches found: 326      Misses:174      Ratio:65.2
Comparing to: ../../testdata/Trees/img4.png
Number of FAST Keypoints: 500
        Matches found: 221      Misses:279      Ratio:44.2
Comparing to: ../../testdata/Trees/img5.png
Number of FAST Keypoints: 500
        Matches found: 135      Misses:365      Ratio:27
Comparing to: ../../testdata/Trees/img6.png
Number of FAST Keypoints: 500
        Matches found: 101      Misses:399      Ratio:20.2

Scene: Ubc
Number of FAST Keypoints: 500
Comparing to: ../../testdata/Ubc/img2.png
Number of FAST Keypoints: 500
        Matches found: 466      Misses:34       Ratio:93.2
Comparing to: ../../testdata/Ubc/img3.png
Number of FAST Keypoints: 500
        Matches found: 460      Misses:40       Ratio:92
Comparing to: ../../testdata/Ubc/img4.png
Number of FAST Keypoints: 500
        Matches found: 433      Misses:67       Ratio:86.6
Comparing to: ../../testdata/Ubc/img5.png
Number of FAST Keypoints: 500
        Matches found: 392      Misses:108      Ratio:78.4
Comparing to: ../../testdata/Ubc/img6.png
Number of FAST Keypoints: 500
        Matches found: 368      Misses:132      Ratio:73.6

Scene: Wall
Number of FAST Keypoints: 500
Comparing to: ../../testdata/Wall/img2.png
Number of FAST Keypoints: 500
        Matches found: 319      Misses:181      Ratio:63.8
Comparing to: ../../testdata/Wall/img3.png
Number of FAST Keypoints: 500
        Matches found: 303      Misses:197      Ratio:60.6
Comparing to: ../../testdata/Wall/img4.png
Number of FAST Keypoints: 500
        Matches found: 235      Misses:265      Ratio:47
Comparing to: ../../testdata/Wall/img5.png
Number of FAST Keypoints: 500
        Matches found: 175      Misses:325      Ratio:35
Comparing to: ../../testdata/Wall/img6.png
Number of FAST Keypoints: 500
        Matches found: 124      Misses:376      Ratio:24.8
FAST average percentage of hits: 47.4048
FAST average number of keypoints: 497.183
FAST time taken: 9.537s

Running performance evaluation with STAR

Scene: Bark
Number of STAR Keypoints: 169
Comparing to: ../../testdata/Bark/img2.png
Number of STAR Keypoints: 141
        Matches found: 37       Misses:104      Ratio:26.2411
Comparing to: ../../testdata/Bark/img3.png
Number of STAR Keypoints: 158
        Matches found: 22       Misses:136      Ratio:13.9241
Comparing to: ../../testdata/Bark/img4.png
Number of STAR Keypoints: 309
        Matches found: 45       Misses:264      Ratio:14.5631
Comparing to: ../../testdata/Bark/img5.png
Number of STAR Keypoints: 262
        Matches found: 27       Misses:235      Ratio:10.3053
Comparing to: ../../testdata/Bark/img6.png
Number of STAR Keypoints: 347
        Matches found: 16       Misses:331      Ratio:4.61095

Scene: Bikes
Number of STAR Keypoints: 500
Comparing to: ../../testdata/Bikes/img2.png
Number of STAR Keypoints: 335
        Matches found: 299      Misses:36       Ratio:89.2537
Comparing to: ../../testdata/Bikes/img3.png
Number of STAR Keypoints: 264
        Matches found: 228      Misses:36       Ratio:86.3636
Comparing to: ../../testdata/Bikes/img4.png
Number of STAR Keypoints: 173
        Matches found: 158      Misses:15       Ratio:91.3295
Comparing to: ../../testdata/Bikes/img5.png
Number of STAR Keypoints: 126
        Matches found: 117      Misses:9        Ratio:92.8571
Comparing to: ../../testdata/Bikes/img6.png
Number of STAR Keypoints: 77
        Matches found: 74       Misses:3        Ratio:96.1039

Scene: Boat
Number of STAR Keypoints: 500
Comparing to: ../../testdata/Boat/img2.png
Number of STAR Keypoints: 500
        Matches found: 333      Misses:167      Ratio:66.6
Comparing to: ../../testdata/Boat/img3.png
Number of STAR Keypoints: 500
        Matches found: 253      Misses:247      Ratio:50.6
Comparing to: ../../testdata/Boat/img4.png
Number of STAR Keypoints: 500
        Matches found: 167      Misses:333      Ratio:33.4
Comparing to: ../../testdata/Boat/img5.png
Number of STAR Keypoints: 500
        Matches found: 131      Misses:369      Ratio:26.2
Comparing to: ../../testdata/Boat/img6.png
Number of STAR Keypoints: 500
        Matches found: 76       Misses:424      Ratio:15.2

Scene: Christchurch
Number of STAR Keypoints: 500
Comparing to: ../../testdata/Christchurch/img2.png
Number of STAR Keypoints: 500
        Matches found: 427      Misses:73       Ratio:85.4
Comparing to: ../../testdata/Christchurch/img3.png
Number of STAR Keypoints: 500
        Matches found: 386      Misses:114      Ratio:77.2
Comparing to: ../../testdata/Christchurch/img4.png
Number of STAR Keypoints: 500
        Matches found: 384      Misses:116      Ratio:76.8
Comparing to: ../../testdata/Christchurch/img5.png
Number of STAR Keypoints: 500
        Matches found: 362      Misses:138      Ratio:72.4
Comparing to: ../../testdata/Christchurch/img6.png
Number of STAR Keypoints: 500
        Matches found: 386      Misses:114      Ratio:77.2

Scene: Graf
Number of STAR Keypoints: 500
Comparing to: ../../testdata/Graf/img2.png
Number of STAR Keypoints: 500
        Matches found: 294      Misses:206      Ratio:58.8
Comparing to: ../../testdata/Graf/img3.png
Number of STAR Keypoints: 500
        Matches found: 220      Misses:280      Ratio:44
Comparing to: ../../testdata/Graf/img4.png
Number of STAR Keypoints: 500
        Matches found: 179      Misses:321      Ratio:35.8
Comparing to: ../../testdata/Graf/img5.png
Number of STAR Keypoints: 500
        Matches found: 101      Misses:399      Ratio:20.2
Comparing to: ../../testdata/Graf/img6.png
Number of STAR Keypoints: 500
        Matches found: 83       Misses:417      Ratio:16.6

Scene: Leuven
Number of STAR Keypoints: 500
Comparing to: ../../testdata/Leuven/img2.png
Number of STAR Keypoints: 373
        Matches found: 303      Misses:70       Ratio:81.2332
Comparing to: ../../testdata/Leuven/img3.png
Number of STAR Keypoints: 295
        Matches found: 233      Misses:62       Ratio:78.9831
Comparing to: ../../testdata/Leuven/img4.png
Number of STAR Keypoints: 226
        Matches found: 177      Misses:49       Ratio:78.3186
Comparing to: ../../testdata/Leuven/img5.png
Number of STAR Keypoints: 188
        Matches found: 141      Misses:47       Ratio:75
Comparing to: ../../testdata/Leuven/img6.png
Number of STAR Keypoints: 126
        Matches found: 98       Misses:28       Ratio:77.7778

Scene: Memorial
Number of STAR Keypoints: 307
Comparing to: ../../testdata/Memorial/img2.png
Number of STAR Keypoints: 323
        Matches found: 284      Misses:39       Ratio:87.9257
Comparing to: ../../testdata/Memorial/img3.png
Number of STAR Keypoints: 340
        Matches found: 285      Misses:55       Ratio:83.8235
Comparing to: ../../testdata/Memorial/img4.png
Number of STAR Keypoints: 302
        Matches found: 247      Misses:55       Ratio:81.7881
Comparing to: ../../testdata/Memorial/img5.png
Number of STAR Keypoints: 361
        Matches found: 210      Misses:151      Ratio:58.1717
Comparing to: ../../testdata/Memorial/img6.png
Number of STAR Keypoints: 340
        Matches found: 275      Misses:65       Ratio:80.8824

Scene: Trees
Number of STAR Keypoints: 500
Comparing to: ../../testdata/Trees/img2.png
Number of STAR Keypoints: 500
        Matches found: 374      Misses:126      Ratio:74.8
Comparing to: ../../testdata/Trees/img3.png
Number of STAR Keypoints: 500
        Matches found: 378      Misses:122      Ratio:75.6
Comparing to: ../../testdata/Trees/img4.png
Number of STAR Keypoints: 500
        Matches found: 344      Misses:156      Ratio:68.8
Comparing to: ../../testdata/Trees/img5.png
Number of STAR Keypoints: 500
        Matches found: 341      Misses:159      Ratio:68.2
Comparing to: ../../testdata/Trees/img6.png
Number of STAR Keypoints: 500
        Matches found: 338      Misses:162      Ratio:67.6

Scene: Ubc
Number of STAR Keypoints: 500
Comparing to: ../../testdata/Ubc/img2.png
Number of STAR Keypoints: 500
        Matches found: 474      Misses:26       Ratio:94.8
Comparing to: ../../testdata/Ubc/img3.png
Number of STAR Keypoints: 500
        Matches found: 458      Misses:42       Ratio:91.6
Comparing to: ../../testdata/Ubc/img4.png
Number of STAR Keypoints: 500
        Matches found: 436      Misses:64       Ratio:87.2
Comparing to: ../../testdata/Ubc/img5.png
Number of STAR Keypoints: 500
        Matches found: 394      Misses:106      Ratio:78.8
Comparing to: ../../testdata/Ubc/img6.png
Number of STAR Keypoints: 500
        Matches found: 366      Misses:134      Ratio:73.2

Scene: Wall
Number of STAR Keypoints: 500
Comparing to: ../../testdata/Wall/img2.png
Number of STAR Keypoints: 500
        Matches found: 377      Misses:123      Ratio:75.4
Comparing to: ../../testdata/Wall/img3.png
Number of STAR Keypoints: 500
        Matches found: 348      Misses:152      Ratio:69.6
Comparing to: ../../testdata/Wall/img4.png
Number of STAR Keypoints: 500
        Matches found: 267      Misses:233      Ratio:53.4
Comparing to: ../../testdata/Wall/img5.png
Number of STAR Keypoints: 500
        Matches found: 224      Misses:276      Ratio:44.8
Comparing to: ../../testdata/Wall/img6.png
Number of STAR Keypoints: 500
        Matches found: 173      Misses:327      Ratio:34.6
STAR average percentage of hits: 52.0709
STAR average number of keypoints: 409.033
STAR time taken: 11.853s

Running performance evaluation with SIFT

Scene: Bark
Number of SIFT Keypoints: 500
Comparing to: ../../testdata/Bark/img2.png
Number of SIFT Keypoints: 500
        Matches found: 140      Misses:360      Ratio:28
Comparing to: ../../testdata/Bark/img3.png
Number of SIFT Keypoints: 500
        Matches found: 46       Misses:454      Ratio:9.2
Comparing to: ../../testdata/Bark/img4.png
Number of SIFT Keypoints: 500
        Matches found: 34       Misses:466      Ratio:6.8
Comparing to: ../../testdata/Bark/img5.png
Number of SIFT Keypoints: 500
        Matches found: 54       Misses:446      Ratio:10.8
Comparing to: ../../testdata/Bark/img6.png
Number of SIFT Keypoints: 500
        Matches found: 15       Misses:485      Ratio:3

Scene: Bikes
Number of SIFT Keypoints: 500
Comparing to: ../../testdata/Bikes/img2.png
Number of SIFT Keypoints: 500
        Matches found: 311      Misses:189      Ratio:62.2
Comparing to: ../../testdata/Bikes/img3.png
Number of SIFT Keypoints: 500
        Matches found: 274      Misses:226      Ratio:54.8
Comparing to: ../../testdata/Bikes/img4.png
Number of SIFT Keypoints: 500
        Matches found: 260      Misses:240      Ratio:52
Comparing to: ../../testdata/Bikes/img5.png
Number of SIFT Keypoints: 500
        Matches found: 226      Misses:274      Ratio:45.2
Comparing to: ../../testdata/Bikes/img6.png
Number of SIFT Keypoints: 375
        Matches found: 181      Misses:194      Ratio:48.2667

Scene: Boat
Number of SIFT Keypoints: 500
Comparing to: ../../testdata/Boat/img2.png
Number of SIFT Keypoints: 500
        Matches found: 313      Misses:187      Ratio:62.6
Comparing to: ../../testdata/Boat/img3.png
Number of SIFT Keypoints: 500
        Matches found: 268      Misses:232      Ratio:53.6
Comparing to: ../../testdata/Boat/img4.png
Number of SIFT Keypoints: 500
        Matches found: 135      Misses:365      Ratio:27
Comparing to: ../../testdata/Boat/img5.png
Number of SIFT Keypoints: 500
        Matches found: 106      Misses:394      Ratio:21.2
Comparing to: ../../testdata/Boat/img6.png
Number of SIFT Keypoints: 500
        Matches found: 39       Misses:461      Ratio:7.8

Scene: Christchurch
Number of SIFT Keypoints: 500
Comparing to: ../../testdata/Christchurch/img2.png
Number of SIFT Keypoints: 500
        Matches found: 441      Misses:59       Ratio:88.2
Comparing to: ../../testdata/Christchurch/img3.png
Number of SIFT Keypoints: 500
        Matches found: 423      Misses:77       Ratio:84.6
Comparing to: ../../testdata/Christchurch/img4.png
Number of SIFT Keypoints: 500
        Matches found: 402      Misses:98       Ratio:80.4
Comparing to: ../../testdata/Christchurch/img5.png
Number of SIFT Keypoints: 500
        Matches found: 365      Misses:135      Ratio:73
Comparing to: ../../testdata/Christchurch/img6.png
Number of SIFT Keypoints: 500
        Matches found: 279      Misses:221      Ratio:55.8

Scene: Graf
Number of SIFT Keypoints: 500
Comparing to: ../../testdata/Graf/img2.png
Number of SIFT Keypoints: 500
        Matches found: 295      Misses:205      Ratio:59
Comparing to: ../../testdata/Graf/img3.png
Number of SIFT Keypoints: 500
        Matches found: 220      Misses:280      Ratio:44
Comparing to: ../../testdata/Graf/img4.png
Number of SIFT Keypoints: 500
        Matches found: 157      Misses:343      Ratio:31.4
Comparing to: ../../testdata/Graf/img5.png
Number of SIFT Keypoints: 500
        Matches found: 82       Misses:418      Ratio:16.4
Comparing to: ../../testdata/Graf/img6.png
Number of SIFT Keypoints: 500
        Matches found: 48       Misses:452      Ratio:9.6

Scene: Leuven
Number of SIFT Keypoints: 500
Comparing to: ../../testdata/Leuven/img2.png
Number of SIFT Keypoints: 500
        Matches found: 342      Misses:158      Ratio:68.4
Comparing to: ../../testdata/Leuven/img3.png
Number of SIFT Keypoints: 500
        Matches found: 304      Misses:196      Ratio:60.8
Comparing to: ../../testdata/Leuven/img4.png
Number of SIFT Keypoints: 500
        Matches found: 266      Misses:234      Ratio:53.2
Comparing to: ../../testdata/Leuven/img5.png
Number of SIFT Keypoints: 500
        Matches found: 252      Misses:248      Ratio:50.4
Comparing to: ../../testdata/Leuven/img6.png
Number of SIFT Keypoints: 500
        Matches found: 234      Misses:266      Ratio:46.8

Scene: Memorial
Number of SIFT Keypoints: 500
Comparing to: ../../testdata/Memorial/img2.png
Number of SIFT Keypoints: 500
        Matches found: 428      Misses:72       Ratio:85.6
Comparing to: ../../testdata/Memorial/img3.png
Number of SIFT Keypoints: 500
        Matches found: 411      Misses:89       Ratio:82.2
Comparing to: ../../testdata/Memorial/img4.png
Number of SIFT Keypoints: 500
        Matches found: 376      Misses:124      Ratio:75.2
Comparing to: ../../testdata/Memorial/img5.png
Number of SIFT Keypoints: 500
        Matches found: 272      Misses:228      Ratio:54.4
Comparing to: ../../testdata/Memorial/img6.png
Number of SIFT Keypoints: 500
        Matches found: 262      Misses:238      Ratio:52.4

Scene: Trees
Number of SIFT Keypoints: 500
Comparing to: ../../testdata/Trees/img2.png
Number of SIFT Keypoints: 500
        Matches found: 243      Misses:257      Ratio:48.6
Comparing to: ../../testdata/Trees/img3.png
Number of SIFT Keypoints: 500
        Matches found: 201      Misses:299      Ratio:40.2
Comparing to: ../../testdata/Trees/img4.png
Number of SIFT Keypoints: 500
        Matches found: 177      Misses:323      Ratio:35.4
Comparing to: ../../testdata/Trees/img5.png
Number of SIFT Keypoints: 500
        Matches found: 142      Misses:358      Ratio:28.4
Comparing to: ../../testdata/Trees/img6.png
Number of SIFT Keypoints: 500
        Matches found: 127      Misses:373      Ratio:25.4

Scene: Ubc
Number of SIFT Keypoints: 500
Comparing to: ../../testdata/Ubc/img2.png
Number of SIFT Keypoints: 500
        Matches found: 408      Misses:92       Ratio:81.6
Comparing to: ../../testdata/Ubc/img3.png
Number of SIFT Keypoints: 500
        Matches found: 370      Misses:130      Ratio:74
Comparing to: ../../testdata/Ubc/img4.png
Number of SIFT Keypoints: 500
        Matches found: 338      Misses:162      Ratio:67.6
Comparing to: ../../testdata/Ubc/img5.png
Number of SIFT Keypoints: 500
        Matches found: 313      Misses:187      Ratio:62.6
Comparing to: ../../testdata/Ubc/img6.png
Number of SIFT Keypoints: 500
        Matches found: 276      Misses:224      Ratio:55.2

Scene: Wall
Number of SIFT Keypoints: 500
Comparing to: ../../testdata/Wall/img2.png
Number of SIFT Keypoints: 500
        Matches found: 308      Misses:192      Ratio:61.6
Comparing to: ../../testdata/Wall/img3.png
Number of SIFT Keypoints: 500
        Matches found: 292      Misses:208      Ratio:58.4
Comparing to: ../../testdata/Wall/img4.png
Number of SIFT Keypoints: 500
        Matches found: 195      Misses:305      Ratio:39
Comparing to: ../../testdata/Wall/img5.png
Number of SIFT Keypoints: 500
        Matches found: 125      Misses:375      Ratio:25
Comparing to: ../../testdata/Wall/img6.png
Number of SIFT Keypoints: 500
        Matches found: 80       Misses:420      Ratio:16
SIFT average percentage of hits: 39.7211
SIFT average number of keypoints: 497.917
SIFT time taken: 119.634s

Running performance evaluation with SURF

Scene: Bark
Number of SURF Keypoints: 500
Comparing to: ../../testdata/Bark/img2.png
Number of SURF Keypoints: 500
        Matches found: 183      Misses:317      Ratio:36.6
Comparing to: ../../testdata/Bark/img3.png
Number of SURF Keypoints: 500
        Matches found: 98       Misses:402      Ratio:19.6
Comparing to: ../../testdata/Bark/img4.png
Number of SURF Keypoints: 500
        Matches found: 70       Misses:430      Ratio:14
Comparing to: ../../testdata/Bark/img5.png
Number of SURF Keypoints: 500
        Matches found: 45       Misses:455      Ratio:9
Comparing to: ../../testdata/Bark/img6.png
Number of SURF Keypoints: 500
        Matches found: 20       Misses:480      Ratio:4

Scene: Bikes
Number of SURF Keypoints: 500
Comparing to: ../../testdata/Bikes/img2.png
Number of SURF Keypoints: 500
        Matches found: 434      Misses:66       Ratio:86.8
Comparing to: ../../testdata/Bikes/img3.png
Number of SURF Keypoints: 500
        Matches found: 412      Misses:88       Ratio:82.4
Comparing to: ../../testdata/Bikes/img4.png
Number of SURF Keypoints: 500
        Matches found: 375      Misses:125      Ratio:75
Comparing to: ../../testdata/Bikes/img5.png
Number of SURF Keypoints: 500
        Matches found: 311      Misses:189      Ratio:62.2
Comparing to: ../../testdata/Bikes/img6.png
Number of SURF Keypoints: 500
        Matches found: 267      Misses:233      Ratio:53.4

Scene: Boat
Number of SURF Keypoints: 500
Comparing to: ../../testdata/Boat/img2.png
Number of SURF Keypoints: 500
        Matches found: 334      Misses:166      Ratio:66.8
Comparing to: ../../testdata/Boat/img3.png
Number of SURF Keypoints: 500
        Matches found: 250      Misses:250      Ratio:50
Comparing to: ../../testdata/Boat/img4.png
Number of SURF Keypoints: 500
        Matches found: 155      Misses:345      Ratio:31
Comparing to: ../../testdata/Boat/img5.png
Number of SURF Keypoints: 500
        Matches found: 95       Misses:405      Ratio:19
Comparing to: ../../testdata/Boat/img6.png
Number of SURF Keypoints: 500
        Matches found: 55       Misses:445      Ratio:11

Scene: Christchurch
Number of SURF Keypoints: 500
Comparing to: ../../testdata/Christchurch/img2.png
Number of SURF Keypoints: 500
        Matches found: 454      Misses:46       Ratio:90.8
Comparing to: ../../testdata/Christchurch/img3.png
Number of SURF Keypoints: 500
        Matches found: 418      Misses:82       Ratio:83.6
Comparing to: ../../testdata/Christchurch/img4.png
Number of SURF Keypoints: 500
        Matches found: 415      Misses:85       Ratio:83
Comparing to: ../../testdata/Christchurch/img5.png
Number of SURF Keypoints: 500
        Matches found: 381      Misses:119      Ratio:76.2
Comparing to: ../../testdata/Christchurch/img6.png
Number of SURF Keypoints: 500
        Matches found: 324      Misses:176      Ratio:64.8

Scene: Graf
Number of SURF Keypoints: 500
Comparing to: ../../testdata/Graf/img2.png
Number of SURF Keypoints: 500
        Matches found: 285      Misses:215      Ratio:57
Comparing to: ../../testdata/Graf/img3.png
Number of SURF Keypoints: 500
        Matches found: 221      Misses:279      Ratio:44.2
Comparing to: ../../testdata/Graf/img4.png
Number of SURF Keypoints: 500
        Matches found: 150      Misses:350      Ratio:30
Comparing to: ../../testdata/Graf/img5.png
Number of SURF Keypoints: 500
        Matches found: 83       Misses:417      Ratio:16.6
Comparing to: ../../testdata/Graf/img6.png
Number of SURF Keypoints: 500
        Matches found: 75       Misses:425      Ratio:15

Scene: Leuven
Number of SURF Keypoints: 500
Comparing to: ../../testdata/Leuven/img2.png
Number of SURF Keypoints: 500
        Matches found: 407      Misses:93       Ratio:81.4
Comparing to: ../../testdata/Leuven/img3.png
Number of SURF Keypoints: 500
        Matches found: 381      Misses:119      Ratio:76.2
Comparing to: ../../testdata/Leuven/img4.png
Number of SURF Keypoints: 500
        Matches found: 375      Misses:125      Ratio:75
Comparing to: ../../testdata/Leuven/img5.png
Number of SURF Keypoints: 500
        Matches found: 334      Misses:166      Ratio:66.8
Comparing to: ../../testdata/Leuven/img6.png
Number of SURF Keypoints: 500
        Matches found: 320      Misses:180      Ratio:64

Scene: Memorial
Number of SURF Keypoints: 500
Comparing to: ../../testdata/Memorial/img2.png
Number of SURF Keypoints: 500
        Matches found: 441      Misses:59       Ratio:88.2
Comparing to: ../../testdata/Memorial/img3.png
Number of SURF Keypoints: 500
        Matches found: 403      Misses:97       Ratio:80.6
Comparing to: ../../testdata/Memorial/img4.png
Number of SURF Keypoints: 500
        Matches found: 363      Misses:137      Ratio:72.6
Comparing to: ../../testdata/Memorial/img5.png
Number of SURF Keypoints: 500
        Matches found: 289      Misses:211      Ratio:57.8
Comparing to: ../../testdata/Memorial/img6.png
Number of SURF Keypoints: 500
        Matches found: 289      Misses:211      Ratio:57.8

Scene: Trees
Number of SURF Keypoints: 500
Comparing to: ../../testdata/Trees/img2.png
Number of SURF Keypoints: 500
        Matches found: 373      Misses:127      Ratio:74.6
Comparing to: ../../testdata/Trees/img3.png
Number of SURF Keypoints: 500
        Matches found: 353      Misses:147      Ratio:70.6
Comparing to: ../../testdata/Trees/img4.png
Number of SURF Keypoints: 500
        Matches found: 309      Misses:191      Ratio:61.8
Comparing to: ../../testdata/Trees/img5.png
Number of SURF Keypoints: 500
        Matches found: 283      Misses:217      Ratio:56.6
Comparing to: ../../testdata/Trees/img6.png
Number of SURF Keypoints: 500
        Matches found: 237      Misses:263      Ratio:47.4

Scene: Ubc
Number of SURF Keypoints: 500
Comparing to: ../../testdata/Ubc/img2.png
Number of SURF Keypoints: 500
        Matches found: 488      Misses:12       Ratio:97.6
Comparing to: ../../testdata/Ubc/img3.png
Number of SURF Keypoints: 500
        Matches found: 481      Misses:19       Ratio:96.2
Comparing to: ../../testdata/Ubc/img4.png
Number of SURF Keypoints: 500
        Matches found: 463      Misses:37       Ratio:92.6
Comparing to: ../../testdata/Ubc/img5.png
Number of SURF Keypoints: 500
        Matches found: 444      Misses:56       Ratio:88.8
Comparing to: ../../testdata/Ubc/img6.png
Number of SURF Keypoints: 500
        Matches found: 416      Misses:84       Ratio:83.2

Scene: Wall
Number of SURF Keypoints: 500
Comparing to: ../../testdata/Wall/img2.png
Number of SURF Keypoints: 500
        Matches found: 357      Misses:143      Ratio:71.4
Comparing to: ../../testdata/Wall/img3.png
Number of SURF Keypoints: 500
        Matches found: 310      Misses:190      Ratio:62
Comparing to: ../../testdata/Wall/img4.png
Number of SURF Keypoints: 500
        Matches found: 195      Misses:305      Ratio:39
Comparing to: ../../testdata/Wall/img5.png
Number of SURF Keypoints: 500
        Matches found: 160      Misses:340      Ratio:32
Comparing to: ../../testdata/Wall/img6.png
Number of SURF Keypoints: 500
        Matches found: 121      Misses:379      Ratio:24.2
SURF average percentage of hits: 48.34
SURF average number of keypoints: 500
SURF time taken: 76.351s

Running performance evaluation with ORB

Scene: Bark
Number of ORB Keypoints: 500
Comparing to: ../../testdata/Bark/img2.png
Number of ORB Keypoints: 500
        Matches found: 108      Misses:392      Ratio:21.6
Comparing to: ../../testdata/Bark/img3.png
Number of ORB Keypoints: 500
        Matches found: 33       Misses:467      Ratio:6.6
Comparing to: ../../testdata/Bark/img4.png
Number of ORB Keypoints: 500
        Matches found: 46       Misses:454      Ratio:9.2
Comparing to: ../../testdata/Bark/img5.png
Number of ORB Keypoints: 500
        Matches found: 28       Misses:472      Ratio:5.6
Comparing to: ../../testdata/Bark/img6.png
Number of ORB Keypoints: 500
        Matches found: 9        Misses:491      Ratio:1.8

Scene: Bikes
Number of ORB Keypoints: 500
Comparing to: ../../testdata/Bikes/img2.png
Number of ORB Keypoints: 500
        Matches found: 433      Misses:67       Ratio:86.6
Comparing to: ../../testdata/Bikes/img3.png
Number of ORB Keypoints: 500
        Matches found: 413      Misses:87       Ratio:82.6
Comparing to: ../../testdata/Bikes/img4.png
Number of ORB Keypoints: 500
        Matches found: 360      Misses:140      Ratio:72
Comparing to: ../../testdata/Bikes/img5.png
Number of ORB Keypoints: 467
        Matches found: 307      Misses:160      Ratio:65.7388
Comparing to: ../../testdata/Bikes/img6.png
Number of ORB Keypoints: 369
        Matches found: 189      Misses:180      Ratio:51.2195

Scene: Boat
Number of ORB Keypoints: 500
Comparing to: ../../testdata/Boat/img2.png
Number of ORB Keypoints: 500
        Matches found: 370      Misses:130      Ratio:74
Comparing to: ../../testdata/Boat/img3.png
Number of ORB Keypoints: 500
        Matches found: 280      Misses:220      Ratio:56
Comparing to: ../../testdata/Boat/img4.png
Number of ORB Keypoints: 500
        Matches found: 139      Misses:361      Ratio:27.8
Comparing to: ../../testdata/Boat/img5.png
Number of ORB Keypoints: 500
        Matches found: 120      Misses:380      Ratio:24
Comparing to: ../../testdata/Boat/img6.png
Number of ORB Keypoints: 500
        Matches found: 55       Misses:445      Ratio:11

Scene: Christchurch
Number of ORB Keypoints: 500
Comparing to: ../../testdata/Christchurch/img2.png
Number of ORB Keypoints: 500
        Matches found: 444      Misses:56       Ratio:88.8
Comparing to: ../../testdata/Christchurch/img3.png
Number of ORB Keypoints: 500
        Matches found: 421      Misses:79       Ratio:84.2
Comparing to: ../../testdata/Christchurch/img4.png
Number of ORB Keypoints: 500
        Matches found: 422      Misses:78       Ratio:84.4
Comparing to: ../../testdata/Christchurch/img5.png
Number of ORB Keypoints: 500
        Matches found: 278      Misses:222      Ratio:55.6
Comparing to: ../../testdata/Christchurch/img6.png
Number of ORB Keypoints: 500
        Matches found: 126      Misses:374      Ratio:25.2

Scene: Graf
Number of ORB Keypoints: 500
Comparing to: ../../testdata/Graf/img2.png
Number of ORB Keypoints: 500
        Matches found: 367      Misses:133      Ratio:73.4
Comparing to: ../../testdata/Graf/img3.png
Number of ORB Keypoints: 500
        Matches found: 222      Misses:278      Ratio:44.4
Comparing to: ../../testdata/Graf/img4.png
Number of ORB Keypoints: 500
        Matches found: 163      Misses:337      Ratio:32.6
Comparing to: ../../testdata/Graf/img5.png
Number of ORB Keypoints: 500
        Matches found: 55       Misses:445      Ratio:11
Comparing to: ../../testdata/Graf/img6.png
Number of ORB Keypoints: 500
        Matches found: 28       Misses:472      Ratio:5.6

Scene: Leuven
Number of ORB Keypoints: 500
Comparing to: ../../testdata/Leuven/img2.png
Number of ORB Keypoints: 500
        Matches found: 342      Misses:158      Ratio:68.4
Comparing to: ../../testdata/Leuven/img3.png
Number of ORB Keypoints: 500
        Matches found: 294      Misses:206      Ratio:58.8
Comparing to: ../../testdata/Leuven/img4.png
Number of ORB Keypoints: 500
        Matches found: 263      Misses:237      Ratio:52.6
Comparing to: ../../testdata/Leuven/img5.png
Number of ORB Keypoints: 500
        Matches found: 228      Misses:272      Ratio:45.6
Comparing to: ../../testdata/Leuven/img6.png
Number of ORB Keypoints: 500
        Matches found: 202      Misses:298      Ratio:40.4

Scene: Memorial
Number of ORB Keypoints: 500
Comparing to: ../../testdata/Memorial/img2.png
Number of ORB Keypoints: 500
        Matches found: 465      Misses:35       Ratio:93
Comparing to: ../../testdata/Memorial/img3.png
Number of ORB Keypoints: 500
        Matches found: 443      Misses:57       Ratio:88.6
Comparing to: ../../testdata/Memorial/img4.png
Number of ORB Keypoints: 500
        Matches found: 420      Misses:80       Ratio:84
Comparing to: ../../testdata/Memorial/img5.png
Number of ORB Keypoints: 500
        Matches found: 197      Misses:303      Ratio:39.4
Comparing to: ../../testdata/Memorial/img6.png
Number of ORB Keypoints: 500
        Matches found: 215      Misses:285      Ratio:43

Scene: Trees
Number of ORB Keypoints: 500
Comparing to: ../../testdata/Trees/img2.png
Number of ORB Keypoints: 500
        Matches found: 307      Misses:193      Ratio:61.4
Comparing to: ../../testdata/Trees/img3.png
Number of ORB Keypoints: 500
        Matches found: 243      Misses:257      Ratio:48.6
Comparing to: ../../testdata/Trees/img4.png
Number of ORB Keypoints: 500
        Matches found: 173      Misses:327      Ratio:34.6
Comparing to: ../../testdata/Trees/img5.png
Number of ORB Keypoints: 500
        Matches found: 157      Misses:343      Ratio:31.4
Comparing to: ../../testdata/Trees/img6.png
Number of ORB Keypoints: 500
        Matches found: 95       Misses:405      Ratio:19

Scene: Ubc
Number of ORB Keypoints: 500
Comparing to: ../../testdata/Ubc/img2.png
Number of ORB Keypoints: 500
        Matches found: 484      Misses:16       Ratio:96.8
Comparing to: ../../testdata/Ubc/img3.png
Number of ORB Keypoints: 500
        Matches found: 487      Misses:13       Ratio:97.4
Comparing to: ../../testdata/Ubc/img4.png
Number of ORB Keypoints: 500
        Matches found: 464      Misses:36       Ratio:92.8
Comparing to: ../../testdata/Ubc/img5.png
Number of ORB Keypoints: 500
        Matches found: 430      Misses:70       Ratio:86
Comparing to: ../../testdata/Ubc/img6.png
Number of ORB Keypoints: 500
        Matches found: 391      Misses:109      Ratio:78.2

Scene: Wall
Number of ORB Keypoints: 500
Comparing to: ../../testdata/Wall/img2.png
Number of ORB Keypoints: 500
        Matches found: 327      Misses:173      Ratio:65.4
Comparing to: ../../testdata/Wall/img3.png
Number of ORB Keypoints: 500
        Matches found: 317      Misses:183      Ratio:63.4
Comparing to: ../../testdata/Wall/img4.png
Number of ORB Keypoints: 500
        Matches found: 128      Misses:372      Ratio:25.6
Comparing to: ../../testdata/Wall/img5.png
Number of ORB Keypoints: 500
        Matches found: 84       Misses:416      Ratio:16.8
Comparing to: ../../testdata/Wall/img6.png
Number of ORB Keypoints: 500
        Matches found: 30       Misses:470      Ratio:6
ORB average percentage of hits: 42.3026
ORB average number of keypoints: 497.267
ORB time taken: 12.612s

Running performance evaluation with BRISK

Scene: Bark
Number of BRISK Keypoints: 466
Comparing to: ../../testdata/Bark/img2.png
Number of BRISK Keypoints: 312
        Matches found: 86       Misses:226      Ratio:27.5641
Comparing to: ../../testdata/Bark/img3.png
Number of BRISK Keypoints: 423
        Matches found: 48       Misses:375      Ratio:11.3475
Comparing to: ../../testdata/Bark/img4.png
Number of BRISK Keypoints: 500
        Matches found: 63       Misses:437      Ratio:12.6
Comparing to: ../../testdata/Bark/img5.png
Number of BRISK Keypoints: 500
        Matches found: 40       Misses:460      Ratio:8
Comparing to: ../../testdata/Bark/img6.png
Number of BRISK Keypoints: 500
        Matches found: 19       Misses:481      Ratio:3.8

Scene: Bikes
Number of BRISK Keypoints: 500
Comparing to: ../../testdata/Bikes/img2.png
Number of BRISK Keypoints: 328
        Matches found: 185      Misses:143      Ratio:56.4024
Comparing to: ../../testdata/Bikes/img3.png
Number of BRISK Keypoints: 246
        Matches found: 142      Misses:104      Ratio:57.7236
Comparing to: ../../testdata/Bikes/img4.png
Number of BRISK Keypoints: 152
        Matches found: 96       Misses:56       Ratio:63.1579
Comparing to: ../../testdata/Bikes/img5.png
Number of BRISK Keypoints: 130
        Matches found: 80       Misses:50       Ratio:61.5385
Comparing to: ../../testdata/Bikes/img6.png
Number of BRISK Keypoints: 104
        Matches found: 71       Misses:33       Ratio:68.2692

Scene: Boat
Number of BRISK Keypoints: 500
Comparing to: ../../testdata/Boat/img2.png
Number of BRISK Keypoints: 500
        Matches found: 213      Misses:287      Ratio:42.6
Comparing to: ../../testdata/Boat/img3.png
Number of BRISK Keypoints: 500
        Matches found: 165      Misses:335      Ratio:33
Comparing to: ../../testdata/Boat/img4.png
Number of BRISK Keypoints: 500
        Matches found: 101      Misses:399      Ratio:20.2
Comparing to: ../../testdata/Boat/img5.png
Number of BRISK Keypoints: 500
        Matches found: 83       Misses:417      Ratio:16.6
Comparing to: ../../testdata/Boat/img6.png
Number of BRISK Keypoints: 500
        Matches found: 50       Misses:450      Ratio:10

Scene: Christchurch
Number of BRISK Keypoints: 500
Comparing to: ../../testdata/Christchurch/img2.png
Number of BRISK Keypoints: 500
        Matches found: 295      Misses:205      Ratio:59
Comparing to: ../../testdata/Christchurch/img3.png
Number of BRISK Keypoints: 500
        Matches found: 283      Misses:217      Ratio:56.6
Comparing to: ../../testdata/Christchurch/img4.png
Number of BRISK Keypoints: 500
        Matches found: 299      Misses:201      Ratio:59.8
Comparing to: ../../testdata/Christchurch/img5.png
Number of BRISK Keypoints: 500
        Matches found: 273      Misses:227      Ratio:54.6
Comparing to: ../../testdata/Christchurch/img6.png
Number of BRISK Keypoints: 500
        Matches found: 276      Misses:224      Ratio:55.2

Scene: Graf
Number of BRISK Keypoints: 500
Comparing to: ../../testdata/Graf/img2.png
Number of BRISK Keypoints: 500
        Matches found: 226      Misses:274      Ratio:45.2
Comparing to: ../../testdata/Graf/img3.png
Number of BRISK Keypoints: 500
        Matches found: 176      Misses:324      Ratio:35.2
Comparing to: ../../testdata/Graf/img4.png
Number of BRISK Keypoints: 500
        Matches found: 148      Misses:352      Ratio:29.6
Comparing to: ../../testdata/Graf/img5.png
Number of BRISK Keypoints: 500
        Matches found: 93       Misses:407      Ratio:18.6
Comparing to: ../../testdata/Graf/img6.png
Number of BRISK Keypoints: 500
        Matches found: 70       Misses:430      Ratio:14

Scene: Leuven
Number of BRISK Keypoints: 500
Comparing to: ../../testdata/Leuven/img2.png
Number of BRISK Keypoints: 500
        Matches found: 317      Misses:183      Ratio:63.4
Comparing to: ../../testdata/Leuven/img3.png
Number of BRISK Keypoints: 500
        Matches found: 288      Misses:212      Ratio:57.6
Comparing to: ../../testdata/Leuven/img4.png
Number of BRISK Keypoints: 498
        Matches found: 261      Misses:237      Ratio:52.4096
Comparing to: ../../testdata/Leuven/img5.png
Number of BRISK Keypoints: 402
        Matches found: 214      Misses:188      Ratio:53.2338
Comparing to: ../../testdata/Leuven/img6.png
Number of BRISK Keypoints: 294
        Matches found: 177      Misses:117      Ratio:60.2041

Scene: Memorial
Number of BRISK Keypoints: 500
Comparing to: ../../testdata/Memorial/img2.png
Number of BRISK Keypoints: 500
        Matches found: 345      Misses:155      Ratio:69
Comparing to: ../../testdata/Memorial/img3.png
Number of BRISK Keypoints: 500
        Matches found: 318      Misses:182      Ratio:63.6
Comparing to: ../../testdata/Memorial/img4.png
Number of BRISK Keypoints: 500
        Matches found: 271      Misses:229      Ratio:54.2
Comparing to: ../../testdata/Memorial/img5.png
Number of BRISK Keypoints: 500
        Matches found: 233      Misses:267      Ratio:46.6
Comparing to: ../../testdata/Memorial/img6.png
Number of BRISK Keypoints: 500
        Matches found: 305      Misses:195      Ratio:61

Scene: Trees
Number of BRISK Keypoints: 500
Comparing to: ../../testdata/Trees/img2.png
Number of BRISK Keypoints: 500
        Matches found: 246      Misses:254      Ratio:49.2
Comparing to: ../../testdata/Trees/img3.png
Number of BRISK Keypoints: 500
        Matches found: 253      Misses:247      Ratio:50.6
Comparing to: ../../testdata/Trees/img4.png
Number of BRISK Keypoints: 500
        Matches found: 228      Misses:272      Ratio:45.6
Comparing to: ../../testdata/Trees/img5.png
Number of BRISK Keypoints: 500
        Matches found: 184      Misses:316      Ratio:36.8
Comparing to: ../../testdata/Trees/img6.png
Number of BRISK Keypoints: 500
        Matches found: 160      Misses:340      Ratio:32

Scene: Ubc
Number of BRISK Keypoints: 500
Comparing to: ../../testdata/Ubc/img2.png
Number of BRISK Keypoints: 500
        Matches found: 282      Misses:218      Ratio:56.4
Comparing to: ../../testdata/Ubc/img3.png
Number of BRISK Keypoints: 500
        Matches found: 283      Misses:217      Ratio:56.6
Comparing to: ../../testdata/Ubc/img4.png
Number of BRISK Keypoints: 500
        Matches found: 258      Misses:242      Ratio:51.6
Comparing to: ../../testdata/Ubc/img5.png
Number of BRISK Keypoints: 500
        Matches found: 245      Misses:255      Ratio:49
Comparing to: ../../testdata/Ubc/img6.png
Number of BRISK Keypoints: 500
        Matches found: 191      Misses:309      Ratio:38.2

Scene: Wall
Number of BRISK Keypoints: 500
Comparing to: ../../testdata/Wall/img2.png
Number of BRISK Keypoints: 500
        Matches found: 232      Misses:268      Ratio:46.4
Comparing to: ../../testdata/Wall/img3.png
Number of BRISK Keypoints: 500
        Matches found: 204      Misses:296      Ratio:40.8
Comparing to: ../../testdata/Wall/img4.png
Number of BRISK Keypoints: 500
        Matches found: 171      Misses:329      Ratio:34.2
Comparing to: ../../testdata/Wall/img5.png
Number of BRISK Keypoints: 500
        Matches found: 172      Misses:328      Ratio:34.4
Comparing to: ../../testdata/Wall/img6.png
Number of BRISK Keypoints: 500
        Matches found: 133      Misses:367      Ratio:26.6
BRISK average percentage of hits: 35.8375
BRISK average number of keypoints: 464.25
BRISK time taken: 16.957s

Running performance evaluation with MSER

Scene: Bark
Number of MSER Keypoints: 323
Comparing to: ../../testdata/Bark/img2.png
Number of MSER Keypoints: 213
        Matches found: 70       Misses:143      Ratio:32.8638
Comparing to: ../../testdata/Bark/img3.png
Number of MSER Keypoints: 300
        Matches found: 36       Misses:264      Ratio:12
Comparing to: ../../testdata/Bark/img4.png
Number of MSER Keypoints: 500
        Matches found: 41       Misses:459      Ratio:8.2
Comparing to: ../../testdata/Bark/img5.png
Number of MSER Keypoints: 498
        Matches found: 22       Misses:476      Ratio:4.41767
Comparing to: ../../testdata/Bark/img6.png
Number of MSER Keypoints: 500
        Matches found: 14       Misses:486      Ratio:2.8

Scene: Bikes
Number of MSER Keypoints: 500
Comparing to: ../../testdata/Bikes/img2.png
Number of MSER Keypoints: 359
        Matches found: 282      Misses:77       Ratio:78.5515
Comparing to: ../../testdata/Bikes/img3.png
Number of MSER Keypoints: 333
        Matches found: 247      Misses:86       Ratio:74.1742
Comparing to: ../../testdata/Bikes/img4.png
Number of MSER Keypoints: 255
        Matches found: 182      Misses:73       Ratio:71.3725
Comparing to: ../../testdata/Bikes/img5.png
Number of MSER Keypoints: 216
        Matches found: 141      Misses:75       Ratio:65.2778
Comparing to: ../../testdata/Bikes/img6.png
Number of MSER Keypoints: 166
        Matches found: 99       Misses:67       Ratio:59.6386

Scene: Boat
Number of MSER Keypoints: 214
Comparing to: ../../testdata/Boat/img2.png
Number of MSER Keypoints: 304
        Matches found: 121      Misses:183      Ratio:39.8026
Comparing to: ../../testdata/Boat/img3.png
Number of MSER Keypoints: 500
        Matches found: 114      Misses:386      Ratio:22.8
Comparing to: ../../testdata/Boat/img4.png
Number of MSER Keypoints: 114
        Matches found: 44       Misses:70       Ratio:38.5965
Comparing to: ../../testdata/Boat/img5.png
Number of MSER Keypoints: 479
        Matches found: 51       Misses:428      Ratio:10.6472
Comparing to: ../../testdata/Boat/img6.png
Number of MSER Keypoints: 102
        Matches found: 16       Misses:86       Ratio:15.6863

Scene: Christchurch
Number of MSER Keypoints: 291
Comparing to: ../../testdata/Christchurch/img2.png
Number of MSER Keypoints: 296
        Matches found: 234      Misses:62       Ratio:79.0541
Comparing to: ../../testdata/Christchurch/img3.png
Number of MSER Keypoints: 315
        Matches found: 263      Misses:52       Ratio:83.4921
Comparing to: ../../testdata/Christchurch/img4.png
Number of MSER Keypoints: 296
        Matches found: 223      Misses:73       Ratio:75.3378
Comparing to: ../../testdata/Christchurch/img5.png
Number of MSER Keypoints: 252
        Matches found: 187      Misses:65       Ratio:74.2063
Comparing to: ../../testdata/Christchurch/img6.png
Number of MSER Keypoints: 300
        Matches found: 170      Misses:130      Ratio:56.6667

Scene: Graf
Number of MSER Keypoints: 500
Comparing to: ../../testdata/Graf/img2.png
Number of MSER Keypoints: 500
        Matches found: 259      Misses:241      Ratio:51.8
Comparing to: ../../testdata/Graf/img3.png
Number of MSER Keypoints: 500
        Matches found: 167      Misses:333      Ratio:33.4
Comparing to: ../../testdata/Graf/img4.png
Number of MSER Keypoints: 500
        Matches found: 192      Misses:308      Ratio:38.4
Comparing to: ../../testdata/Graf/img5.png
Number of MSER Keypoints: 500
        Matches found: 126      Misses:374      Ratio:25.2
Comparing to: ../../testdata/Graf/img6.png
Number of MSER Keypoints: 500
        Matches found: 82       Misses:418      Ratio:16.4

Scene: Leuven
Number of MSER Keypoints: 467
Comparing to: ../../testdata/Leuven/img2.png
Number of MSER Keypoints: 380
        Matches found: 314      Misses:66       Ratio:82.6316
Comparing to: ../../testdata/Leuven/img3.png
Number of MSER Keypoints: 343
        Matches found: 253      Misses:90       Ratio:73.7609
Comparing to: ../../testdata/Leuven/img4.png
Number of MSER Keypoints: 283
        Matches found: 193      Misses:90       Ratio:68.1979
Comparing to: ../../testdata/Leuven/img5.png
Number of MSER Keypoints: 237
        Matches found: 164      Misses:73       Ratio:69.1983
Comparing to: ../../testdata/Leuven/img6.png
Number of MSER Keypoints: 209
        Matches found: 126      Misses:83       Ratio:60.2871

Scene: Memorial
Number of MSER Keypoints: 168
Comparing to: ../../testdata/Memorial/img2.png
Number of MSER Keypoints: 183
        Matches found: 140      Misses:43       Ratio:76.5027
Comparing to: ../../testdata/Memorial/img3.png
Number of MSER Keypoints: 195
        Matches found: 143      Misses:52       Ratio:73.3333
Comparing to: ../../testdata/Memorial/img4.png
Number of MSER Keypoints: 200
        Matches found: 133      Misses:67       Ratio:66.5
Comparing to: ../../testdata/Memorial/img5.png
Number of MSER Keypoints: 201
        Matches found: 121      Misses:80       Ratio:60.199
Comparing to: ../../testdata/Memorial/img6.png
Number of MSER Keypoints: 201
        Matches found: 102      Misses:99       Ratio:50.7463

Scene: Trees
Number of MSER Keypoints: 500
Comparing to: ../../testdata/Trees/img2.png
Number of MSER Keypoints: 500
        Matches found: 205      Misses:295      Ratio:41
Comparing to: ../../testdata/Trees/img3.png
Number of MSER Keypoints: 500
        Matches found: 161      Misses:339      Ratio:32.2
Comparing to: ../../testdata/Trees/img4.png
Number of MSER Keypoints: 500
        Matches found: 171      Misses:329      Ratio:34.2
Comparing to: ../../testdata/Trees/img5.png
Number of MSER Keypoints: 500
        Matches found: 139      Misses:361      Ratio:27.8
Comparing to: ../../testdata/Trees/img6.png
Number of MSER Keypoints: 500
        Matches found: 104      Misses:396      Ratio:20.8

Scene: Ubc
Number of MSER Keypoints: 500
Comparing to: ../../testdata/Ubc/img2.png
Number of MSER Keypoints: 500
        Matches found: 387      Misses:113      Ratio:77.4
Comparing to: ../../testdata/Ubc/img3.png
Number of MSER Keypoints: 500
        Matches found: 375      Misses:125      Ratio:75
Comparing to: ../../testdata/Ubc/img4.png
Number of MSER Keypoints: 500
        Matches found: 346      Misses:154      Ratio:69.2
Comparing to: ../../testdata/Ubc/img5.png
Number of MSER Keypoints: 500
        Matches found: 276      Misses:224      Ratio:55.2
Comparing to: ../../testdata/Ubc/img6.png
Number of MSER Keypoints: 297
        Matches found: 153      Misses:144      Ratio:51.5152

Scene: Wall
Number of MSER Keypoints: 500
Comparing to: ../../testdata/Wall/img2.png
Number of MSER Keypoints: 500
        Matches found: 286      Misses:214      Ratio:57.2
Comparing to: ../../testdata/Wall/img3.png
Number of MSER Keypoints: 500
        Matches found: 270      Misses:230      Ratio:54
Comparing to: ../../testdata/Wall/img4.png
Number of MSER Keypoints: 500
        Matches found: 217      Misses:283      Ratio:43.4
Comparing to: ../../testdata/Wall/img5.png
Number of MSER Keypoints: 500
        Matches found: 167      Misses:333      Ratio:33.4
Comparing to: ../../testdata/Wall/img6.png
Number of MSER Keypoints: 500
        Matches found: 107      Misses:393      Ratio:21.4
MSER average percentage of hits: 40.7643
MSER average number of keypoints: 374.833
MSER time taken: 34.935s

Running performance evaluation with GFTT

Scene: Bark
Number of GFTT Keypoints: 500
Comparing to: ../../testdata/Bark/img2.png
Number of GFTT Keypoints: 500
        Matches found: 117      Misses:383      Ratio:23.4
Comparing to: ../../testdata/Bark/img3.png
Number of GFTT Keypoints: 500
        Matches found: 71       Misses:429      Ratio:14.2
Comparing to: ../../testdata/Bark/img4.png
Number of GFTT Keypoints: 500
        Matches found: 58       Misses:442      Ratio:11.6
Comparing to: ../../testdata/Bark/img5.png
Number of GFTT Keypoints: 500
        Matches found: 36       Misses:464      Ratio:7.2
Comparing to: ../../testdata/Bark/img6.png
Number of GFTT Keypoints: 500
        Matches found: 19       Misses:481      Ratio:3.8

Scene: Bikes
Number of GFTT Keypoints: 500
Comparing to: ../../testdata/Bikes/img2.png
Number of GFTT Keypoints: 500
        Matches found: 395      Misses:105      Ratio:79
Comparing to: ../../testdata/Bikes/img3.png
Number of GFTT Keypoints: 500
        Matches found: 399      Misses:101      Ratio:79.8
Comparing to: ../../testdata/Bikes/img4.png
Number of GFTT Keypoints: 500
        Matches found: 358      Misses:142      Ratio:71.6
Comparing to: ../../testdata/Bikes/img5.png
Number of GFTT Keypoints: 500
        Matches found: 321      Misses:179      Ratio:64.2
Comparing to: ../../testdata/Bikes/img6.png
Number of GFTT Keypoints: 500
        Matches found: 271      Misses:229      Ratio:54.2

Scene: Boat
Number of GFTT Keypoints: 500
Comparing to: ../../testdata/Boat/img2.png
Number of GFTT Keypoints: 500
        Matches found: 352      Misses:148      Ratio:70.4
Comparing to: ../../testdata/Boat/img3.png
Number of GFTT Keypoints: 500
        Matches found: 282      Misses:218      Ratio:56.4
Comparing to: ../../testdata/Boat/img4.png
Number of GFTT Keypoints: 500
        Matches found: 181      Misses:319      Ratio:36.2
Comparing to: ../../testdata/Boat/img5.png
Number of GFTT Keypoints: 500
        Matches found: 130      Misses:370      Ratio:26
Comparing to: ../../testdata/Boat/img6.png
Number of GFTT Keypoints: 500
        Matches found: 56       Misses:444      Ratio:11.2

Scene: Christchurch
Number of GFTT Keypoints: 500
Comparing to: ../../testdata/Christchurch/img2.png
Number of GFTT Keypoints: 500
        Matches found: 468      Misses:32       Ratio:93.6
Comparing to: ../../testdata/Christchurch/img3.png
Number of GFTT Keypoints: 500
        Matches found: 456      Misses:44       Ratio:91.2
Comparing to: ../../testdata/Christchurch/img4.png
Number of GFTT Keypoints: 500
        Matches found: 466      Misses:34       Ratio:93.2
Comparing to: ../../testdata/Christchurch/img5.png
Number of GFTT Keypoints: 500
        Matches found: 415      Misses:85       Ratio:83
Comparing to: ../../testdata/Christchurch/img6.png
Number of GFTT Keypoints: 500
        Matches found: 393      Misses:107      Ratio:78.6

Scene: Graf
Number of GFTT Keypoints: 500
Comparing to: ../../testdata/Graf/img2.png
Number of GFTT Keypoints: 500
        Matches found: 311      Misses:189      Ratio:62.2
Comparing to: ../../testdata/Graf/img3.png
Number of GFTT Keypoints: 500
        Matches found: 268      Misses:232      Ratio:53.6
Comparing to: ../../testdata/Graf/img4.png
Number of GFTT Keypoints: 500
        Matches found: 194      Misses:306      Ratio:38.8
Comparing to: ../../testdata/Graf/img5.png
Number of GFTT Keypoints: 500
        Matches found: 128      Misses:372      Ratio:25.6
Comparing to: ../../testdata/Graf/img6.png
Number of GFTT Keypoints: 500
        Matches found: 103      Misses:397      Ratio:20.6

Scene: Leuven
Number of GFTT Keypoints: 500
Comparing to: ../../testdata/Leuven/img2.png
Number of GFTT Keypoints: 500
        Matches found: 364      Misses:136      Ratio:72.8
Comparing to: ../../testdata/Leuven/img3.png
Number of GFTT Keypoints: 500
        Matches found: 321      Misses:179      Ratio:64.2
Comparing to: ../../testdata/Leuven/img4.png
Number of GFTT Keypoints: 500
        Matches found: 286      Misses:214      Ratio:57.2
Comparing to: ../../testdata/Leuven/img5.png
Number of GFTT Keypoints: 500
        Matches found: 268      Misses:232      Ratio:53.6
Comparing to: ../../testdata/Leuven/img6.png
Number of GFTT Keypoints: 500
        Matches found: 271      Misses:229      Ratio:54.2

Scene: Memorial
Number of GFTT Keypoints: 500
Comparing to: ../../testdata/Memorial/img2.png
Number of GFTT Keypoints: 500
        Matches found: 464      Misses:36       Ratio:92.8
Comparing to: ../../testdata/Memorial/img3.png
Number of GFTT Keypoints: 500
        Matches found: 458      Misses:42       Ratio:91.6
Comparing to: ../../testdata/Memorial/img4.png
Number of GFTT Keypoints: 500
        Matches found: 408      Misses:92       Ratio:81.6
Comparing to: ../../testdata/Memorial/img5.png
Number of GFTT Keypoints: 500
        Matches found: 264      Misses:236      Ratio:52.8
Comparing to: ../../testdata/Memorial/img6.png
Number of GFTT Keypoints: 500
        Matches found: 371      Misses:129      Ratio:74.2

Scene: Trees
Number of GFTT Keypoints: 500
Comparing to: ../../testdata/Trees/img2.png
Number of GFTT Keypoints: 500
        Matches found: 336      Misses:164      Ratio:67.2
Comparing to: ../../testdata/Trees/img3.png
Number of GFTT Keypoints: 500
        Matches found: 303      Misses:197      Ratio:60.6
Comparing to: ../../testdata/Trees/img4.png
Number of GFTT Keypoints: 500
        Matches found: 206      Misses:294      Ratio:41.2
Comparing to: ../../testdata/Trees/img5.png
Number of GFTT Keypoints: 500
        Matches found: 152      Misses:348      Ratio:30.4
Comparing to: ../../testdata/Trees/img6.png
Number of GFTT Keypoints: 500
        Matches found: 133      Misses:367      Ratio:26.6

Scene: Ubc
Number of GFTT Keypoints: 500
Comparing to: ../../testdata/Ubc/img2.png
Number of GFTT Keypoints: 500
        Matches found: 479      Misses:21       Ratio:95.8
Comparing to: ../../testdata/Ubc/img3.png
Number of GFTT Keypoints: 500
        Matches found: 470      Misses:30       Ratio:94
Comparing to: ../../testdata/Ubc/img4.png
Number of GFTT Keypoints: 500
        Matches found: 439      Misses:61       Ratio:87.8
Comparing to: ../../testdata/Ubc/img5.png
Number of GFTT Keypoints: 500
        Matches found: 400      Misses:100      Ratio:80
Comparing to: ../../testdata/Ubc/img6.png
Number of GFTT Keypoints: 500
        Matches found: 346      Misses:154      Ratio:69.2

Scene: Wall
Number of GFTT Keypoints: 500
Comparing to: ../../testdata/Wall/img2.png
Number of GFTT Keypoints: 500
        Matches found: 352      Misses:148      Ratio:70.4
Comparing to: ../../testdata/Wall/img3.png
Number of GFTT Keypoints: 500
        Matches found: 329      Misses:171      Ratio:65.8
Comparing to: ../../testdata/Wall/img4.png
Number of GFTT Keypoints: 500
        Matches found: 234      Misses:266      Ratio:46.8
Comparing to: ../../testdata/Wall/img5.png
Number of GFTT Keypoints: 500
        Matches found: 192      Misses:308      Ratio:38.4
Comparing to: ../../testdata/Wall/img6.png
Number of GFTT Keypoints: 500
        Matches found: 108      Misses:392      Ratio:21.6
GFTT average percentage of hits: 47.34
GFTT average number of keypoints: 500
GFTT time taken: 61.08s

Running performance evaluation with HARRIS

Scene: Bark
Number of HARRIS Keypoints: 500
Comparing to: ../../testdata/Bark/img2.png
Number of HARRIS Keypoints: 500
        Matches found: 115      Misses:385      Ratio:23
Comparing to: ../../testdata/Bark/img3.png
Number of HARRIS Keypoints: 500
        Matches found: 73       Misses:427      Ratio:14.6
Comparing to: ../../testdata/Bark/img4.png
Number of HARRIS Keypoints: 500
        Matches found: 52       Misses:448      Ratio:10.4
Comparing to: ../../testdata/Bark/img5.png
Number of HARRIS Keypoints: 500
        Matches found: 38       Misses:462      Ratio:7.6
Comparing to: ../../testdata/Bark/img6.png
Number of HARRIS Keypoints: 500
        Matches found: 22       Misses:478      Ratio:4.4

Scene: Bikes
Number of HARRIS Keypoints: 500
Comparing to: ../../testdata/Bikes/img2.png
Number of HARRIS Keypoints: 302
        Matches found: 285      Misses:17       Ratio:94.3709
Comparing to: ../../testdata/Bikes/img3.png
Number of HARRIS Keypoints: 257
        Matches found: 241      Misses:16       Ratio:93.7743
Comparing to: ../../testdata/Bikes/img4.png
Number of HARRIS Keypoints: 434
        Matches found: 344      Misses:90       Ratio:79.2627
Comparing to: ../../testdata/Bikes/img5.png
Number of HARRIS Keypoints: 366
        Matches found: 273      Misses:93       Ratio:74.5902
Comparing to: ../../testdata/Bikes/img6.png
Number of HARRIS Keypoints: 330
        Matches found: 210      Misses:120      Ratio:63.6364

Scene: Boat
Number of HARRIS Keypoints: 500
Comparing to: ../../testdata/Boat/img2.png
Number of HARRIS Keypoints: 500
        Matches found: 360      Misses:140      Ratio:72
Comparing to: ../../testdata/Boat/img3.png
Number of HARRIS Keypoints: 500
        Matches found: 310      Misses:190      Ratio:62
Comparing to: ../../testdata/Boat/img4.png
Number of HARRIS Keypoints: 500
        Matches found: 211      Misses:289      Ratio:42.2
Comparing to: ../../testdata/Boat/img5.png
Number of HARRIS Keypoints: 500
        Matches found: 132      Misses:368      Ratio:26.4
Comparing to: ../../testdata/Boat/img6.png
Number of HARRIS Keypoints: 500
        Matches found: 61       Misses:439      Ratio:12.2

Scene: Christchurch
Number of HARRIS Keypoints: 500
Comparing to: ../../testdata/Christchurch/img2.png
Number of HARRIS Keypoints: 500
        Matches found: 478      Misses:22       Ratio:95.6
Comparing to: ../../testdata/Christchurch/img3.png
Number of HARRIS Keypoints: 500
        Matches found: 462      Misses:38       Ratio:92.4
Comparing to: ../../testdata/Christchurch/img4.png
Number of HARRIS Keypoints: 500
        Matches found: 457      Misses:43       Ratio:91.4
Comparing to: ../../testdata/Christchurch/img5.png
Number of HARRIS Keypoints: 500
        Matches found: 425      Misses:75       Ratio:85
Comparing to: ../../testdata/Christchurch/img6.png
Number of HARRIS Keypoints: 500
        Matches found: 382      Misses:118      Ratio:76.4

Scene: Graf
Number of HARRIS Keypoints: 500
Comparing to: ../../testdata/Graf/img2.png
Number of HARRIS Keypoints: 500
        Matches found: 329      Misses:171      Ratio:65.8
Comparing to: ../../testdata/Graf/img3.png
Number of HARRIS Keypoints: 500
        Matches found: 270      Misses:230      Ratio:54
Comparing to: ../../testdata/Graf/img4.png
Number of HARRIS Keypoints: 500
        Matches found: 191      Misses:309      Ratio:38.2
Comparing to: ../../testdata/Graf/img5.png
Number of HARRIS Keypoints: 500
        Matches found: 134      Misses:366      Ratio:26.8
Comparing to: ../../testdata/Graf/img6.png
Number of HARRIS Keypoints: 500
        Matches found: 104      Misses:396      Ratio:20.8

Scene: Leuven
Number of HARRIS Keypoints: 500
Comparing to: ../../testdata/Leuven/img2.png
Number of HARRIS Keypoints: 500
        Matches found: 373      Misses:127      Ratio:74.6
Comparing to: ../../testdata/Leuven/img3.png
Number of HARRIS Keypoints: 500
        Matches found: 327      Misses:173      Ratio:65.4
Comparing to: ../../testdata/Leuven/img4.png
Number of HARRIS Keypoints: 500
        Matches found: 289      Misses:211      Ratio:57.8
Comparing to: ../../testdata/Leuven/img5.png
Number of HARRIS Keypoints: 500
        Matches found: 283      Misses:217      Ratio:56.6
Comparing to: ../../testdata/Leuven/img6.png
Number of HARRIS Keypoints: 500
        Matches found: 268      Misses:232      Ratio:53.6

Scene: Memorial
Number of HARRIS Keypoints: 500
Comparing to: ../../testdata/Memorial/img2.png
Number of HARRIS Keypoints: 500
        Matches found: 455      Misses:45       Ratio:91
Comparing to: ../../testdata/Memorial/img3.png
Number of HARRIS Keypoints: 500
        Matches found: 460      Misses:40       Ratio:92
Comparing to: ../../testdata/Memorial/img4.png
Number of HARRIS Keypoints: 500
        Matches found: 400      Misses:100      Ratio:80
Comparing to: ../../testdata/Memorial/img5.png
Number of HARRIS Keypoints: 500
        Matches found: 263      Misses:237      Ratio:52.6
Comparing to: ../../testdata/Memorial/img6.png
Number of HARRIS Keypoints: 500
        Matches found: 343      Misses:157      Ratio:68.6

Scene: Trees
Number of HARRIS Keypoints: 500
Comparing to: ../../testdata/Trees/img2.png
Number of HARRIS Keypoints: 500
        Matches found: 358      Misses:142      Ratio:71.6
Comparing to: ../../testdata/Trees/img3.png
Number of HARRIS Keypoints: 500
        Matches found: 339      Misses:161      Ratio:67.8
Comparing to: ../../testdata/Trees/img4.png
Number of HARRIS Keypoints: 500
        Matches found: 181      Misses:319      Ratio:36.2
Comparing to: ../../testdata/Trees/img5.png
Number of HARRIS Keypoints: 500
        Matches found: 154      Misses:346      Ratio:30.8
Comparing to: ../../testdata/Trees/img6.png
Number of HARRIS Keypoints: 500
        Matches found: 115      Misses:385      Ratio:23

Scene: Ubc
Number of HARRIS Keypoints: 500
Comparing to: ../../testdata/Ubc/img2.png
Number of HARRIS Keypoints: 500
        Matches found: 486      Misses:14       Ratio:97.2
Comparing to: ../../testdata/Ubc/img3.png
Number of HARRIS Keypoints: 500
        Matches found: 471      Misses:29       Ratio:94.2
Comparing to: ../../testdata/Ubc/img4.png
Number of HARRIS Keypoints: 500
        Matches found: 451      Misses:49       Ratio:90.2
Comparing to: ../../testdata/Ubc/img5.png
Number of HARRIS Keypoints: 500
        Matches found: 410      Misses:90       Ratio:82
Comparing to: ../../testdata/Ubc/img6.png
Number of HARRIS Keypoints: 500
        Matches found: 361      Misses:139      Ratio:72.2

Scene: Wall
Number of HARRIS Keypoints: 500
Comparing to: ../../testdata/Wall/img2.png
Number of HARRIS Keypoints: 500
        Matches found: 352      Misses:148      Ratio:70.4
Comparing to: ../../testdata/Wall/img3.png
Number of HARRIS Keypoints: 500
        Matches found: 317      Misses:183      Ratio:63.4
Comparing to: ../../testdata/Wall/img4.png
Number of HARRIS Keypoints: 500
        Matches found: 227      Misses:273      Ratio:45.4
Comparing to: ../../testdata/Wall/img5.png
Number of HARRIS Keypoints: 500
        Matches found: 185      Misses:315      Ratio:37
Comparing to: ../../testdata/Wall/img6.png
Number of HARRIS Keypoints: 500
        Matches found: 118      Misses:382      Ratio:23.6
HARRIS average percentage of hits: 48.7339
HARRIS average number of keypoints: 486.483
HARRIS time taken: 59.827s

Running performance evaluation with Dense

Scene: Bark
Number of Dense Keypoints: 500
Comparing to: ../../testdata/Bark/img2.png
Number of Dense Keypoints: 500
        Matches found: 57       Misses:443      Ratio:11.4
Comparing to: ../../testdata/Bark/img3.png
Number of Dense Keypoints: 500
        Matches found: 0        Misses:500      Ratio:0
Comparing to: ../../testdata/Bark/img4.png
Number of Dense Keypoints: 500
        Matches found: 0        Misses:500      Ratio:0
Comparing to: ../../testdata/Bark/img5.png
Number of Dense Keypoints: 500
        Matches found: 0        Misses:500      Ratio:0
Comparing to: ../../testdata/Bark/img6.png
Number of Dense Keypoints: 500
        Matches found: 0        Misses:500      Ratio:0

Scene: Bikes
Number of Dense Keypoints: 500
Comparing to: ../../testdata/Bikes/img2.png
Number of Dense Keypoints: 500
        Matches found: 131      Misses:369      Ratio:26.2
Comparing to: ../../testdata/Bikes/img3.png
Number of Dense Keypoints: 500
        Matches found: 479      Misses:21       Ratio:95.8
Comparing to: ../../testdata/Bikes/img4.png
Number of Dense Keypoints: 500
        Matches found: 429      Misses:71       Ratio:85.8
Comparing to: ../../testdata/Bikes/img5.png
Number of Dense Keypoints: 500
        Matches found: 455      Misses:45       Ratio:91
Comparing to: ../../testdata/Bikes/img6.png
Number of Dense Keypoints: 500
        Matches found: 313      Misses:187      Ratio:62.6

Scene: Boat
Number of Dense Keypoints: 500
Comparing to: ../../testdata/Boat/img2.png
Number of Dense Keypoints: 500
        Matches found: 31       Misses:469      Ratio:6.2
Comparing to: ../../testdata/Boat/img3.png
Number of Dense Keypoints: 500
        Matches found: 0        Misses:500      Ratio:0
Comparing to: ../../testdata/Boat/img4.png
Number of Dense Keypoints: 500
        Matches found: 0        Misses:500      Ratio:0
Comparing to: ../../testdata/Boat/img5.png
Number of Dense Keypoints: 500
        Matches found: 0        Misses:500      Ratio:0
Comparing to: ../../testdata/Boat/img6.png
Number of Dense Keypoints: 500
        Matches found: 0        Misses:500      Ratio:0

Scene: Christchurch
Number of Dense Keypoints: 500
Comparing to: ../../testdata/Christchurch/img2.png
Number of Dense Keypoints: 500
        Matches found: 230      Misses:270      Ratio:46
Comparing to: ../../testdata/Christchurch/img3.png
Number of Dense Keypoints: 500
        Matches found: 113      Misses:387      Ratio:22.6
Comparing to: ../../testdata/Christchurch/img4.png
Number of Dense Keypoints: 500
        Matches found: 78       Misses:422      Ratio:15.6
Comparing to: ../../testdata/Christchurch/img5.png
Number of Dense Keypoints: 500
        Matches found: 0        Misses:500      Ratio:0
Comparing to: ../../testdata/Christchurch/img6.png
Number of Dense Keypoints: 500
        Matches found: 0        Misses:500      Ratio:0

Scene: Graf
Number of Dense Keypoints: 500
Comparing to: ../../testdata/Graf/img2.png
Number of Dense Keypoints: 500
        Matches found: 86       Misses:414      Ratio:17.2
Comparing to: ../../testdata/Graf/img3.png
Number of Dense Keypoints: 500
        Matches found: 0        Misses:500      Ratio:0
Comparing to: ../../testdata/Graf/img4.png
Number of Dense Keypoints: 500
        Matches found: 35       Misses:465      Ratio:7
Comparing to: ../../testdata/Graf/img5.png
Number of Dense Keypoints: 500
        Matches found: 0        Misses:500      Ratio:0
Comparing to: ../../testdata/Graf/img6.png
Number of Dense Keypoints: 500
        Matches found: 0        Misses:500      Ratio:0

Scene: Leuven
Number of Dense Keypoints: 500
Comparing to: ../../testdata/Leuven/img2.png
Number of Dense Keypoints: 500
        Matches found: 499      Misses:1        Ratio:99.8
Comparing to: ../../testdata/Leuven/img3.png
Number of Dense Keypoints: 500
        Matches found: 410      Misses:90       Ratio:82
Comparing to: ../../testdata/Leuven/img4.png
Number of Dense Keypoints: 500
        Matches found: 392      Misses:108      Ratio:78.4
Comparing to: ../../testdata/Leuven/img5.png
Number of Dense Keypoints: 500
        Matches found: 462      Misses:38       Ratio:92.4
Comparing to: ../../testdata/Leuven/img6.png
Number of Dense Keypoints: 500
        Matches found: 437      Misses:63       Ratio:87.4

Scene: Memorial
Number of Dense Keypoints: 500
Comparing to: ../../testdata/Memorial/img2.png
Number of Dense Keypoints: 500
        Matches found: 127      Misses:373      Ratio:25.4
Comparing to: ../../testdata/Memorial/img3.png
Number of Dense Keypoints: 500
        Matches found: 66       Misses:434      Ratio:13.2
Comparing to: ../../testdata/Memorial/img4.png
Number of Dense Keypoints: 500
        Matches found: 46       Misses:454      Ratio:9.2
Comparing to: ../../testdata/Memorial/img5.png
Number of Dense Keypoints: 500
        Matches found: 12       Misses:488      Ratio:2.4
Comparing to: ../../testdata/Memorial/img6.png
Number of Dense Keypoints: 500
        Matches found: 0        Misses:500      Ratio:0

Scene: Trees
Number of Dense Keypoints: 500
Comparing to: ../../testdata/Trees/img2.png
Number of Dense Keypoints: 500
        Matches found: 64       Misses:436      Ratio:12.8
Comparing to: ../../testdata/Trees/img3.png
Number of Dense Keypoints: 500
        Matches found: 145      Misses:355      Ratio:29
Comparing to: ../../testdata/Trees/img4.png
Number of Dense Keypoints: 500
        Matches found: 395      Misses:105      Ratio:79
Comparing to: ../../testdata/Trees/img5.png
Number of Dense Keypoints: 500
        Matches found: 339      Misses:161      Ratio:67.8
Comparing to: ../../testdata/Trees/img6.png
Number of Dense Keypoints: 500
        Matches found: 341      Misses:159      Ratio:68.2

Scene: Ubc
Number of Dense Keypoints: 500
Comparing to: ../../testdata/Ubc/img2.png
Number of Dense Keypoints: 500
        Matches found: 500      Misses:0        Ratio:100
Comparing to: ../../testdata/Ubc/img3.png
Number of Dense Keypoints: 500
        Matches found: 500      Misses:0        Ratio:100
Comparing to: ../../testdata/Ubc/img4.png
Number of Dense Keypoints: 500
        Matches found: 500      Misses:0        Ratio:100
Comparing to: ../../testdata/Ubc/img5.png
Number of Dense Keypoints: 500
        Matches found: 500      Misses:0        Ratio:100
Comparing to: ../../testdata/Ubc/img6.png
Number of Dense Keypoints: 500
        Matches found: 500      Misses:0        Ratio:100

Scene: Wall
Number of Dense Keypoints: 500
Comparing to: ../../testdata/Wall/img2.png
Number of Dense Keypoints: 500
        Matches found: 5        Misses:495      Ratio:1
Comparing to: ../../testdata/Wall/img3.png
Number of Dense Keypoints: 500
        Matches found: 0        Misses:500      Ratio:0
Comparing to: ../../testdata/Wall/img4.png
Number of Dense Keypoints: 500
        Matches found: 0        Misses:500      Ratio:0
Comparing to: ../../testdata/Wall/img5.png
Number of Dense Keypoints: 500
        Matches found: 0        Misses:500      Ratio:0
Comparing to: ../../testdata/Wall/img6.png
Number of Dense Keypoints: 500
        Matches found: 0        Misses:500      Ratio:0
Dense average percentage of hits: 28.9233
Dense average number of keypoints: 500
Dense time taken: 7.502s

Running performance evaluation with SimpleBlob

Scene: Bark
Number of SimpleBlob Keypoints: 1
Comparing to: ../../testdata/Bark/img2.png
Number of SimpleBlob Keypoints: 2
        Matches found: 0        Misses:2        Ratio:0
Comparing to: ../../testdata/Bark/img3.png
Number of SimpleBlob Keypoints: 2
        Matches found: 0        Misses:2        Ratio:0
Comparing to: ../../testdata/Bark/img4.png
Number of SimpleBlob Keypoints: 1
        Matches found: 1        Misses:0        Ratio:100
Comparing to: ../../testdata/Bark/img5.png
Number of SimpleBlob Keypoints: 3
        Matches found: 0        Misses:3        Ratio:0
Comparing to: ../../testdata/Bark/img6.png
Number of SimpleBlob Keypoints: 1
        Matches found: 1        Misses:0        Ratio:100

Scene: Bikes
Number of SimpleBlob Keypoints: 11
Comparing to: ../../testdata/Bikes/img2.png
Number of SimpleBlob Keypoints: 16
        Matches found: 14       Misses:2        Ratio:87.5
Comparing to: ../../testdata/Bikes/img3.png
Number of SimpleBlob Keypoints: 16
        Matches found: 15       Misses:1        Ratio:93.75
Comparing to: ../../testdata/Bikes/img4.png
Number of SimpleBlob Keypoints: 16
        Matches found: 11       Misses:5        Ratio:68.75
Comparing to: ../../testdata/Bikes/img5.png
Number of SimpleBlob Keypoints: 11
        Matches found: 8        Misses:3        Ratio:72.7273
Comparing to: ../../testdata/Bikes/img6.png
Number of SimpleBlob Keypoints: 8
        Matches found: 8        Misses:0        Ratio:100

Scene: Boat
Number of SimpleBlob Keypoints: 24
Comparing to: ../../testdata/Boat/img2.png
Number of SimpleBlob Keypoints: 18
        Matches found: 8        Misses:10       Ratio:44.4444
Comparing to: ../../testdata/Boat/img3.png
Number of SimpleBlob Keypoints: 15
        Matches found: 11       Misses:4        Ratio:73.3333
Comparing to: ../../testdata/Boat/img4.png
Number of SimpleBlob Keypoints: 7
        Matches found: 5        Misses:2        Ratio:71.4286
Comparing to: ../../testdata/Boat/img5.png
Number of SimpleBlob Keypoints: 9
        Matches found: 5        Misses:4        Ratio:55.5556
Comparing to: ../../testdata/Boat/img6.png
Number of SimpleBlob Keypoints: 11
        Matches found: 5        Misses:6        Ratio:45.4545

Scene: Christchurch
Number of SimpleBlob Keypoints: 10
Comparing to: ../../testdata/Christchurch/img2.png
Number of SimpleBlob Keypoints: 5
        Matches found: 4        Misses:1        Ratio:80
Comparing to: ../../testdata/Christchurch/img3.png
Number of SimpleBlob Keypoints: 5
        Matches found: 5        Misses:0        Ratio:100
Comparing to: ../../testdata/Christchurch/img4.png
Number of SimpleBlob Keypoints: 3
        Matches found: 2        Misses:1        Ratio:66.6667
Comparing to: ../../testdata/Christchurch/img5.png
Number of SimpleBlob Keypoints: 2
        Matches found: 2        Misses:0        Ratio:100
Comparing to: ../../testdata/Christchurch/img6.png
Number of SimpleBlob Keypoints: 4
        Matches found: 4        Misses:0        Ratio:100

Scene: Graf
Number of SimpleBlob Keypoints: 3
Comparing to: ../../testdata/Graf/img2.png
Number of SimpleBlob Keypoints: 7
        Matches found: 3        Misses:4        Ratio:42.8571
Comparing to: ../../testdata/Graf/img3.png
Number of SimpleBlob Keypoints: 2
        Matches found: 2        Misses:0        Ratio:100
Comparing to: ../../testdata/Graf/img4.png
Number of SimpleBlob Keypoints: 4
        Matches found: 2        Misses:2        Ratio:50
Comparing to: ../../testdata/Graf/img5.png
Number of SimpleBlob Keypoints: 4
        Matches found: 0        Misses:4        Ratio:0
Comparing to: ../../testdata/Graf/img6.png
Number of SimpleBlob Keypoints: 1
        Matches found: 1        Misses:0        Ratio:100

Scene: Leuven
Number of SimpleBlob Keypoints: 26
Comparing to: ../../testdata/Leuven/img2.png
Number of SimpleBlob Keypoints: 17
        Matches found: 15       Misses:2        Ratio:88.2353
Comparing to: ../../testdata/Leuven/img3.png
Number of SimpleBlob Keypoints: 12
        Matches found: 12       Misses:0        Ratio:100
Comparing to: ../../testdata/Leuven/img4.png
Number of SimpleBlob Keypoints: 10
        Matches found: 9        Misses:1        Ratio:90
Comparing to: ../../testdata/Leuven/img5.png
Number of SimpleBlob Keypoints: 5
        Matches found: 5        Misses:0        Ratio:100
Comparing to: ../../testdata/Leuven/img6.png
Number of SimpleBlob Keypoints: 6
        Matches found: 6        Misses:0        Ratio:100

Scene: Memorial
Number of SimpleBlob Keypoints: 12
Comparing to: ../../testdata/Memorial/img2.png
Number of SimpleBlob Keypoints: 11
        Matches found: 10       Misses:1        Ratio:90.9091
Comparing to: ../../testdata/Memorial/img3.png
Number of SimpleBlob Keypoints: 8
        Matches found: 8        Misses:0        Ratio:100
Comparing to: ../../testdata/Memorial/img4.png
Number of SimpleBlob Keypoints: 4
        Matches found: 4        Misses:0        Ratio:100
Comparing to: ../../testdata/Memorial/img5.png
Number of SimpleBlob Keypoints: 5
        Matches found: 4        Misses:1        Ratio:80
Comparing to: ../../testdata/Memorial/img6.png
Number of SimpleBlob Keypoints: 7
        Matches found: 7        Misses:0        Ratio:100

Scene: Trees
Number of SimpleBlob Keypoints: 12
Comparing to: ../../testdata/Trees/img2.png
Number of SimpleBlob Keypoints: 15
        Matches found: 6        Misses:9        Ratio:40
Comparing to: ../../testdata/Trees/img3.png
Number of SimpleBlob Keypoints: 24
        Matches found: 9        Misses:15       Ratio:37.5
Comparing to: ../../testdata/Trees/img4.png
Number of SimpleBlob Keypoints: 23
        Matches found: 7        Misses:16       Ratio:30.4348
Comparing to: ../../testdata/Trees/img5.png
Number of SimpleBlob Keypoints: 23
        Matches found: 5        Misses:18       Ratio:21.7391
Comparing to: ../../testdata/Trees/img6.png
Number of SimpleBlob Keypoints: 15
        Matches found: 12       Misses:3        Ratio:80

Scene: Ubc
Number of SimpleBlob Keypoints: 18
Comparing to: ../../testdata/Ubc/img2.png
Number of SimpleBlob Keypoints: 20
        Matches found: 17       Misses:3        Ratio:85
Comparing to: ../../testdata/Ubc/img3.png
Number of SimpleBlob Keypoints: 18
        Matches found: 13       Misses:5        Ratio:72.2222
Comparing to: ../../testdata/Ubc/img4.png
Number of SimpleBlob Keypoints: 34
        Matches found: 15       Misses:19       Ratio:44.1176
Comparing to: ../../testdata/Ubc/img5.png
Number of SimpleBlob Keypoints: 76
        Matches found: 18       Misses:58       Ratio:23.6842
Comparing to: ../../testdata/Ubc/img6.png
Number of SimpleBlob Keypoints: 164
        Matches found: 19       Misses:145      Ratio:11.5854

Scene: Wall
Number of SimpleBlob Keypoints: 7
Comparing to: ../../testdata/Wall/img2.png
Number of SimpleBlob Keypoints: 10
        Matches found: 4        Misses:6        Ratio:40
Comparing to: ../../testdata/Wall/img3.png
Number of SimpleBlob Keypoints: 6
        Matches found: 2        Misses:4        Ratio:33.3333
Comparing to: ../../testdata/Wall/img4.png
Number of SimpleBlob Keypoints: 7
        Matches found: 4        Misses:3        Ratio:57.1429
Comparing to: ../../testdata/Wall/img5.png
Number of SimpleBlob Keypoints: 11
        Matches found: 2        Misses:9        Ratio:18.1818
Comparing to: ../../testdata/Wall/img6.png
Number of SimpleBlob Keypoints: 7
        Matches found: 2        Misses:5        Ratio:28.5714
SimpleBlob average percentage of hits: 53.7521
SimpleBlob average number of keypoints: 13.9167
SimpleBlob time taken: 33.84s
Total run-time: 444.214s