===========================================
Keypoint detection without matching
===========================================

Running performance evaluation with FAST

Scene: Bark
Number of FAST Keypoints: 11880
Comparing to: ../../testdata/Bark/img2.png
Number of FAST Keypoints: 9898
Comparing to: ../../testdata/Bark/img3.png
Number of FAST Keypoints: 13064
Comparing to: ../../testdata/Bark/img4.png
Number of FAST Keypoints: 16850
Comparing to: ../../testdata/Bark/img5.png
Number of FAST Keypoints: 16441
Comparing to: ../../testdata/Bark/img6.png
Number of FAST Keypoints: 18676

Scene: Bikes
Number of FAST Keypoints: 11403
Comparing to: ../../testdata/Bikes/img2.png
Number of FAST Keypoints: 3200
Comparing to: ../../testdata/Bikes/img3.png
Number of FAST Keypoints: 2031
Comparing to: ../../testdata/Bikes/img4.png
Number of FAST Keypoints: 1067
Comparing to: ../../testdata/Bikes/img5.png
Number of FAST Keypoints: 630
Comparing to: ../../testdata/Bikes/img6.png
Number of FAST Keypoints: 331

Scene: Boat
Number of FAST Keypoints: 21367
Comparing to: ../../testdata/Boat/img2.png
Number of FAST Keypoints: 23160
Comparing to: ../../testdata/Boat/img3.png
Number of FAST Keypoints: 19948
Comparing to: ../../testdata/Boat/img4.png
Number of FAST Keypoints: 16107
Comparing to: ../../testdata/Boat/img5.png
Number of FAST Keypoints: 13454
Comparing to: ../../testdata/Boat/img6.png
Number of FAST Keypoints: 16417

Scene: Christchurch
Number of FAST Keypoints: 12667
Comparing to: ../../testdata/Christchurch/img2.png
Number of FAST Keypoints: 12932
Comparing to: ../../testdata/Christchurch/img3.png
Number of FAST Keypoints: 13456
Comparing to: ../../testdata/Christchurch/img4.png
Number of FAST Keypoints: 12775
Comparing to: ../../testdata/Christchurch/img5.png
Number of FAST Keypoints: 11686
Comparing to: ../../testdata/Christchurch/img6.png
Number of FAST Keypoints: 13444

Scene: Graf
Number of FAST Keypoints: 7275
Comparing to: ../../testdata/Graf/img2.png
Number of FAST Keypoints: 7756
Comparing to: ../../testdata/Graf/img3.png
Number of FAST Keypoints: 8377
Comparing to: ../../testdata/Graf/img4.png
Number of FAST Keypoints: 10581
Comparing to: ../../testdata/Graf/img5.png
Number of FAST Keypoints: 10537
Comparing to: ../../testdata/Graf/img6.png
Number of FAST Keypoints: 14407

Scene: Leuven
Number of FAST Keypoints: 12010
Comparing to: ../../testdata/Leuven/img2.png
Number of FAST Keypoints: 9487
Comparing to: ../../testdata/Leuven/img3.png
Number of FAST Keypoints: 7976
Comparing to: ../../testdata/Leuven/img4.png
Number of FAST Keypoints: 6678
Comparing to: ../../testdata/Leuven/img5.png
Number of FAST Keypoints: 5633
Comparing to: ../../testdata/Leuven/img6.png
Number of FAST Keypoints: 4561

Scene: Memorial
Number of FAST Keypoints: 8369
Comparing to: ../../testdata/Memorial/img2.png
Number of FAST Keypoints: 8676
Comparing to: ../../testdata/Memorial/img3.png
Number of FAST Keypoints: 9296
Comparing to: ../../testdata/Memorial/img4.png
Number of FAST Keypoints: 9380
Comparing to: ../../testdata/Memorial/img5.png
Number of FAST Keypoints: 9013
Comparing to: ../../testdata/Memorial/img6.png
Number of FAST Keypoints: 9507

Scene: Trees
Number of FAST Keypoints: 37914
Comparing to: ../../testdata/Trees/img2.png
Number of FAST Keypoints: 42769
Comparing to: ../../testdata/Trees/img3.png
Number of FAST Keypoints: 31708
Comparing to: ../../testdata/Trees/img4.png
Number of FAST Keypoints: 18481
Comparing to: ../../testdata/Trees/img5.png
Number of FAST Keypoints: 13083
Comparing to: ../../testdata/Trees/img6.png
Number of FAST Keypoints: 8903

Scene: Ubc
Number of FAST Keypoints: 21367
Comparing to: ../../testdata/Ubc/img2.png
Number of FAST Keypoints: 21112
Comparing to: ../../testdata/Ubc/img3.png
Number of FAST Keypoints: 20221
Comparing to: ../../testdata/Ubc/img4.png
Number of FAST Keypoints: 16206
Comparing to: ../../testdata/Ubc/img5.png
Number of FAST Keypoints: 9550
Comparing to: ../../testdata/Ubc/img6.png
Number of FAST Keypoints: 3568

Scene: Wall
Number of FAST Keypoints: 41330
Comparing to: ../../testdata/Wall/img2.png
Number of FAST Keypoints: 30788
Comparing to: ../../testdata/Wall/img3.png
Number of FAST Keypoints: 29955
Comparing to: ../../testdata/Wall/img4.png
Number of FAST Keypoints: 31313
Comparing to: ../../testdata/Wall/img5.png
Number of FAST Keypoints: 31018
Comparing to: ../../testdata/Wall/img6.png
Number of FAST Keypoints: 30629
FAST average percentage of hits: 0
FAST average number of keypoints: 14872
FAST time taken: 6.233s

Running performance evaluation with STAR

Scene: Bark
Number of STAR Keypoints: 169
Comparing to: ../../testdata/Bark/img2.png
Number of STAR Keypoints: 141
Comparing to: ../../testdata/Bark/img3.png
Number of STAR Keypoints: 158
Comparing to: ../../testdata/Bark/img4.png
Number of STAR Keypoints: 309
Comparing to: ../../testdata/Bark/img5.png
Number of STAR Keypoints: 262
Comparing to: ../../testdata/Bark/img6.png
Number of STAR Keypoints: 347

Scene: Bikes
Number of STAR Keypoints: 552
Comparing to: ../../testdata/Bikes/img2.png
Number of STAR Keypoints: 335
Comparing to: ../../testdata/Bikes/img3.png
Number of STAR Keypoints: 264
Comparing to: ../../testdata/Bikes/img4.png
Number of STAR Keypoints: 173
Comparing to: ../../testdata/Bikes/img5.png
Number of STAR Keypoints: 126
Comparing to: ../../testdata/Bikes/img6.png
Number of STAR Keypoints: 77

Scene: Boat
Number of STAR Keypoints: 1883
Comparing to: ../../testdata/Boat/img2.png
Number of STAR Keypoints: 1842
Comparing to: ../../testdata/Boat/img3.png
Number of STAR Keypoints: 1282
Comparing to: ../../testdata/Boat/img4.png
Number of STAR Keypoints: 917
Comparing to: ../../testdata/Boat/img5.png
Number of STAR Keypoints: 872
Comparing to: ../../testdata/Boat/img6.png
Number of STAR Keypoints: 650

Scene: Christchurch
Number of STAR Keypoints: 689
Comparing to: ../../testdata/Christchurch/img2.png
Number of STAR Keypoints: 688
Comparing to: ../../testdata/Christchurch/img3.png
Number of STAR Keypoints: 725
Comparing to: ../../testdata/Christchurch/img4.png
Number of STAR Keypoints: 729
Comparing to: ../../testdata/Christchurch/img5.png
Number of STAR Keypoints: 607
Comparing to: ../../testdata/Christchurch/img6.png
Number of STAR Keypoints: 724

Scene: Graf
Number of STAR Keypoints: 881
Comparing to: ../../testdata/Graf/img2.png
Number of STAR Keypoints: 921
Comparing to: ../../testdata/Graf/img3.png
Number of STAR Keypoints: 1130
Comparing to: ../../testdata/Graf/img4.png
Number of STAR Keypoints: 914
Comparing to: ../../testdata/Graf/img5.png
Number of STAR Keypoints: 1106
Comparing to: ../../testdata/Graf/img6.png
Number of STAR Keypoints: 828

Scene: Leuven
Number of STAR Keypoints: 507
Comparing to: ../../testdata/Leuven/img2.png
Number of STAR Keypoints: 373
Comparing to: ../../testdata/Leuven/img3.png
Number of STAR Keypoints: 295
Comparing to: ../../testdata/Leuven/img4.png
Number of STAR Keypoints: 226
Comparing to: ../../testdata/Leuven/img5.png
Number of STAR Keypoints: 188
Comparing to: ../../testdata/Leuven/img6.png
Number of STAR Keypoints: 126

Scene: Memorial
Number of STAR Keypoints: 307
Comparing to: ../../testdata/Memorial/img2.png
Number of STAR Keypoints: 323
Comparing to: ../../testdata/Memorial/img3.png
Number of STAR Keypoints: 340
Comparing to: ../../testdata/Memorial/img4.png
Number of STAR Keypoints: 302
Comparing to: ../../testdata/Memorial/img5.png
Number of STAR Keypoints: 361
Comparing to: ../../testdata/Memorial/img6.png
Number of STAR Keypoints: 340

Scene: Trees
Number of STAR Keypoints: 2531
Comparing to: ../../testdata/Trees/img2.png
Number of STAR Keypoints: 2532
Comparing to: ../../testdata/Trees/img3.png
Number of STAR Keypoints: 2839
Comparing to: ../../testdata/Trees/img4.png
Number of STAR Keypoints: 2393
Comparing to: ../../testdata/Trees/img5.png
Number of STAR Keypoints: 1391
Comparing to: ../../testdata/Trees/img6.png
Number of STAR Keypoints: 827

Scene: Ubc
Number of STAR Keypoints: 927
Comparing to: ../../testdata/Ubc/img2.png
Number of STAR Keypoints: 906
Comparing to: ../../testdata/Ubc/img3.png
Number of STAR Keypoints: 888
Comparing to: ../../testdata/Ubc/img4.png
Number of STAR Keypoints: 900
Comparing to: ../../testdata/Ubc/img5.png
Number of STAR Keypoints: 935
Comparing to: ../../testdata/Ubc/img6.png
Number of STAR Keypoints: 883

Scene: Wall
Number of STAR Keypoints: 1470
Comparing to: ../../testdata/Wall/img2.png
Number of STAR Keypoints: 1435
Comparing to: ../../testdata/Wall/img3.png
Number of STAR Keypoints: 1324
Comparing to: ../../testdata/Wall/img4.png
Number of STAR Keypoints: 1305
Comparing to: ../../testdata/Wall/img5.png
Number of STAR Keypoints: 1261
Comparing to: ../../testdata/Wall/img6.png
Number of STAR Keypoints: 1308
STAR average percentage of hits: 0
STAR average number of keypoints: 834.067
STAR time taken: 9.413s

Running performance evaluation with SIFT

Scene: Bark
Number of SIFT Keypoints: 3665
Comparing to: ../../testdata/Bark/img2.png
Number of SIFT Keypoints: 3017
Comparing to: ../../testdata/Bark/img3.png
Number of SIFT Keypoints: 4027
Comparing to: ../../testdata/Bark/img4.png
Number of SIFT Keypoints: 4797
Comparing to: ../../testdata/Bark/img5.png
Number of SIFT Keypoints: 4456
Comparing to: ../../testdata/Bark/img6.png
Number of SIFT Keypoints: 4601

Scene: Bikes
Number of SIFT Keypoints: 3364
Comparing to: ../../testdata/Bikes/img2.png
Number of SIFT Keypoints: 1749
Comparing to: ../../testdata/Bikes/img3.png
Number of SIFT Keypoints: 1226
Comparing to: ../../testdata/Bikes/img4.png
Number of SIFT Keypoints: 730
Comparing to: ../../testdata/Bikes/img5.png
Number of SIFT Keypoints: 533
Comparing to: ../../testdata/Bikes/img6.png
Number of SIFT Keypoints: 375

Scene: Boat
Number of SIFT Keypoints: 8849
Comparing to: ../../testdata/Boat/img2.png
Number of SIFT Keypoints: 8548
Comparing to: ../../testdata/Boat/img3.png
Number of SIFT Keypoints: 6558
Comparing to: ../../testdata/Boat/img4.png
Number of SIFT Keypoints: 5268
Comparing to: ../../testdata/Boat/img5.png
Number of SIFT Keypoints: 4931
Comparing to: ../../testdata/Boat/img6.png
Number of SIFT Keypoints: 4257

Scene: Christchurch
Number of SIFT Keypoints: 2904
Comparing to: ../../testdata/Christchurch/img2.png
Number of SIFT Keypoints: 2784
Comparing to: ../../testdata/Christchurch/img3.png
Number of SIFT Keypoints: 2923
Comparing to: ../../testdata/Christchurch/img4.png
Number of SIFT Keypoints: 2687
Comparing to: ../../testdata/Christchurch/img5.png
Number of SIFT Keypoints: 2487
Comparing to: ../../testdata/Christchurch/img6.png
Number of SIFT Keypoints: 2948

Scene: Graf
Number of SIFT Keypoints: 2667
Comparing to: ../../testdata/Graf/img2.png
Number of SIFT Keypoints: 3045
Comparing to: ../../testdata/Graf/img3.png
Number of SIFT Keypoints: 3498
Comparing to: ../../testdata/Graf/img4.png
Number of SIFT Keypoints: 3657
Comparing to: ../../testdata/Graf/img5.png
Number of SIFT Keypoints: 3919
Comparing to: ../../testdata/Graf/img6.png
Number of SIFT Keypoints: 4770

Scene: Leuven
Number of SIFT Keypoints: 2489
Comparing to: ../../testdata/Leuven/img2.png
Number of SIFT Keypoints: 2086
Comparing to: ../../testdata/Leuven/img3.png
Number of SIFT Keypoints: 1846
Comparing to: ../../testdata/Leuven/img4.png
Number of SIFT Keypoints: 1583
Comparing to: ../../testdata/Leuven/img5.png
Number of SIFT Keypoints: 1438
Comparing to: ../../testdata/Leuven/img6.png
Number of SIFT Keypoints: 1147

Scene: Memorial
Number of SIFT Keypoints: 2197
Comparing to: ../../testdata/Memorial/img2.png
Number of SIFT Keypoints: 2260
Comparing to: ../../testdata/Memorial/img3.png
Number of SIFT Keypoints: 2468
Comparing to: ../../testdata/Memorial/img4.png
Number of SIFT Keypoints: 2556
Comparing to: ../../testdata/Memorial/img5.png
Number of SIFT Keypoints: 2535
Comparing to: ../../testdata/Memorial/img6.png
Number of SIFT Keypoints: 2566

Scene: Trees
Number of SIFT Keypoints: 13307
Comparing to: ../../testdata/Trees/img2.png
Number of SIFT Keypoints: 11782
Comparing to: ../../testdata/Trees/img3.png
Number of SIFT Keypoints: 15850
Comparing to: ../../testdata/Trees/img4.png
Number of SIFT Keypoints: 10136
Comparing to: ../../testdata/Trees/img5.png
Number of SIFT Keypoints: 5078
Comparing to: ../../testdata/Trees/img6.png
Number of SIFT Keypoints: 2943

Scene: Ubc
Number of SIFT Keypoints: 5606
Comparing to: ../../testdata/Ubc/img2.png
Number of SIFT Keypoints: 6461
Comparing to: ../../testdata/Ubc/img3.png
Number of SIFT Keypoints: 7510
Comparing to: ../../testdata/Ubc/img4.png
Number of SIFT Keypoints: 7313
Comparing to: ../../testdata/Ubc/img5.png
Number of SIFT Keypoints: 5431
Comparing to: ../../testdata/Ubc/img6.png
Number of SIFT Keypoints: 3244

Scene: Wall
Number of SIFT Keypoints: 10303
Comparing to: ../../testdata/Wall/img2.png
Number of SIFT Keypoints: 11069
Comparing to: ../../testdata/Wall/img3.png
Number of SIFT Keypoints: 11061
Comparing to: ../../testdata/Wall/img4.png
Number of SIFT Keypoints: 10624
Comparing to: ../../testdata/Wall/img5.png
Number of SIFT Keypoints: 10996
Comparing to: ../../testdata/Wall/img6.png
Number of SIFT Keypoints: 10860
SIFT average percentage of hits: 0
SIFT average number of keypoints: 4899.75
SIFT time taken: 105.077s

Running performance evaluation with SURF

Scene: Bark
Number of SURF Keypoints: 3634
Comparing to: ../../testdata/Bark/img2.png
Number of SURF Keypoints: 3540
Comparing to: ../../testdata/Bark/img3.png
Number of SURF Keypoints: 3653
Comparing to: ../../testdata/Bark/img4.png
Number of SURF Keypoints: 4344
Comparing to: ../../testdata/Bark/img5.png
Number of SURF Keypoints: 4167
Comparing to: ../../testdata/Bark/img6.png
Number of SURF Keypoints: 4476

Scene: Bikes
Number of SURF Keypoints: 5780
Comparing to: ../../testdata/Bikes/img2.png
Number of SURF Keypoints: 3791
Comparing to: ../../testdata/Bikes/img3.png
Number of SURF Keypoints: 3343
Comparing to: ../../testdata/Bikes/img4.png
Number of SURF Keypoints: 2619
Comparing to: ../../testdata/Bikes/img5.png
Number of SURF Keypoints: 2045
Comparing to: ../../testdata/Bikes/img6.png
Number of SURF Keypoints: 1573

Scene: Boat
Number of SURF Keypoints: 6737
Comparing to: ../../testdata/Boat/img2.png
Number of SURF Keypoints: 7200
Comparing to: ../../testdata/Boat/img3.png
Number of SURF Keypoints: 5519
Comparing to: ../../testdata/Boat/img4.png
Number of SURF Keypoints: 4591
Comparing to: ../../testdata/Boat/img5.png
Number of SURF Keypoints: 4100
Comparing to: ../../testdata/Boat/img6.png
Number of SURF Keypoints: 3665

Scene: Christchurch
Number of SURF Keypoints: 4828
Comparing to: ../../testdata/Christchurch/img2.png
Number of SURF Keypoints: 5154
Comparing to: ../../testdata/Christchurch/img3.png
Number of SURF Keypoints: 5522
Comparing to: ../../testdata/Christchurch/img4.png
Number of SURF Keypoints: 4771
Comparing to: ../../testdata/Christchurch/img5.png
Number of SURF Keypoints: 4560
Comparing to: ../../testdata/Christchurch/img6.png
Number of SURF Keypoints: 5507

Scene: Graf
Number of SURF Keypoints: 4805
Comparing to: ../../testdata/Graf/img2.png
Number of SURF Keypoints: 5007
Comparing to: ../../testdata/Graf/img3.png
Number of SURF Keypoints: 5602
Comparing to: ../../testdata/Graf/img4.png
Number of SURF Keypoints: 5331
Comparing to: ../../testdata/Graf/img5.png
Number of SURF Keypoints: 5965
Comparing to: ../../testdata/Graf/img6.png
Number of SURF Keypoints: 5941

Scene: Leuven
Number of SURF Keypoints: 5152
Comparing to: ../../testdata/Leuven/img2.png
Number of SURF Keypoints: 4349
Comparing to: ../../testdata/Leuven/img3.png
Number of SURF Keypoints: 3754
Comparing to: ../../testdata/Leuven/img4.png
Number of SURF Keypoints: 3257
Comparing to: ../../testdata/Leuven/img5.png
Number of SURF Keypoints: 2791
Comparing to: ../../testdata/Leuven/img6.png
Number of SURF Keypoints: 2228

Scene: Memorial
Number of SURF Keypoints: 4118
Comparing to: ../../testdata/Memorial/img2.png
Number of SURF Keypoints: 4278
Comparing to: ../../testdata/Memorial/img3.png
Number of SURF Keypoints: 4467
Comparing to: ../../testdata/Memorial/img4.png
Number of SURF Keypoints: 4495
Comparing to: ../../testdata/Memorial/img5.png
Number of SURF Keypoints: 4322
Comparing to: ../../testdata/Memorial/img6.png
Number of SURF Keypoints: 4543

Scene: Trees
Number of SURF Keypoints: 9055
Comparing to: ../../testdata/Trees/img2.png
Number of SURF Keypoints: 9852
Comparing to: ../../testdata/Trees/img3.png
Number of SURF Keypoints: 8492
Comparing to: ../../testdata/Trees/img4.png
Number of SURF Keypoints: 7161
Comparing to: ../../testdata/Trees/img5.png
Number of SURF Keypoints: 6728
Comparing to: ../../testdata/Trees/img6.png
Number of SURF Keypoints: 5258

Scene: Ubc
Number of SURF Keypoints: 6082
Comparing to: ../../testdata/Ubc/img2.png
Number of SURF Keypoints: 6010
Comparing to: ../../testdata/Ubc/img3.png
Number of SURF Keypoints: 5875
Comparing to: ../../testdata/Ubc/img4.png
Number of SURF Keypoints: 5526
Comparing to: ../../testdata/Ubc/img5.png
Number of SURF Keypoints: 4923
Comparing to: ../../testdata/Ubc/img6.png
Number of SURF Keypoints: 3782

Scene: Wall
Number of SURF Keypoints: 10401
Comparing to: ../../testdata/Wall/img2.png
Number of SURF Keypoints: 8252
Comparing to: ../../testdata/Wall/img3.png
Number of SURF Keypoints: 7986
Comparing to: ../../testdata/Wall/img4.png
Number of SURF Keypoints: 7921
Comparing to: ../../testdata/Wall/img5.png
Number of SURF Keypoints: 7854
Comparing to: ../../testdata/Wall/img6.png
Number of SURF Keypoints: 7564
SURF average percentage of hits: 0
SURF average number of keypoints: 5237.43
SURF time taken: 66.224s

Running performance evaluation with ORB

Scene: Bark
Number of ORB Keypoints: 500
Comparing to: ../../testdata/Bark/img2.png
Number of ORB Keypoints: 500
Comparing to: ../../testdata/Bark/img3.png
Number of ORB Keypoints: 500
Comparing to: ../../testdata/Bark/img4.png
Number of ORB Keypoints: 500
Comparing to: ../../testdata/Bark/img5.png
Number of ORB Keypoints: 500
Comparing to: ../../testdata/Bark/img6.png
Number of ORB Keypoints: 500

Scene: Bikes
Number of ORB Keypoints: 500
Comparing to: ../../testdata/Bikes/img2.png
Number of ORB Keypoints: 500
Comparing to: ../../testdata/Bikes/img3.png
Number of ORB Keypoints: 500
Comparing to: ../../testdata/Bikes/img4.png
Number of ORB Keypoints: 500
Comparing to: ../../testdata/Bikes/img5.png
Number of ORB Keypoints: 467
Comparing to: ../../testdata/Bikes/img6.png
Number of ORB Keypoints: 369

Scene: Boat
Number of ORB Keypoints: 500
Comparing to: ../../testdata/Boat/img2.png
Number of ORB Keypoints: 500
Comparing to: ../../testdata/Boat/img3.png
Number of ORB Keypoints: 500
Comparing to: ../../testdata/Boat/img4.png
Number of ORB Keypoints: 500
Comparing to: ../../testdata/Boat/img5.png
Number of ORB Keypoints: 500
Comparing to: ../../testdata/Boat/img6.png
Number of ORB Keypoints: 500

Scene: Christchurch
Number of ORB Keypoints: 500
Comparing to: ../../testdata/Christchurch/img2.png
Number of ORB Keypoints: 500
Comparing to: ../../testdata/Christchurch/img3.png
Number of ORB Keypoints: 500
Comparing to: ../../testdata/Christchurch/img4.png
Number of ORB Keypoints: 500
Comparing to: ../../testdata/Christchurch/img5.png
Number of ORB Keypoints: 500
Comparing to: ../../testdata/Christchurch/img6.png
Number of ORB Keypoints: 500

Scene: Graf
Number of ORB Keypoints: 500
Comparing to: ../../testdata/Graf/img2.png
Number of ORB Keypoints: 500
Comparing to: ../../testdata/Graf/img3.png
Number of ORB Keypoints: 500
Comparing to: ../../testdata/Graf/img4.png
Number of ORB Keypoints: 500
Comparing to: ../../testdata/Graf/img5.png
Number of ORB Keypoints: 500
Comparing to: ../../testdata/Graf/img6.png
Number of ORB Keypoints: 500

Scene: Leuven
Number of ORB Keypoints: 500
Comparing to: ../../testdata/Leuven/img2.png
Number of ORB Keypoints: 500
Comparing to: ../../testdata/Leuven/img3.png
Number of ORB Keypoints: 500
Comparing to: ../../testdata/Leuven/img4.png
Number of ORB Keypoints: 500
Comparing to: ../../testdata/Leuven/img5.png
Number of ORB Keypoints: 500
Comparing to: ../../testdata/Leuven/img6.png
Number of ORB Keypoints: 500

Scene: Memorial
Number of ORB Keypoints: 500
Comparing to: ../../testdata/Memorial/img2.png
Number of ORB Keypoints: 500
Comparing to: ../../testdata/Memorial/img3.png
Number of ORB Keypoints: 500
Comparing to: ../../testdata/Memorial/img4.png
Number of ORB Keypoints: 500
Comparing to: ../../testdata/Memorial/img5.png
Number of ORB Keypoints: 500
Comparing to: ../../testdata/Memorial/img6.png
Number of ORB Keypoints: 500

Scene: Trees
Number of ORB Keypoints: 500
Comparing to: ../../testdata/Trees/img2.png
Number of ORB Keypoints: 500
Comparing to: ../../testdata/Trees/img3.png
Number of ORB Keypoints: 500
Comparing to: ../../testdata/Trees/img4.png
Number of ORB Keypoints: 500
Comparing to: ../../testdata/Trees/img5.png
Number of ORB Keypoints: 500
Comparing to: ../../testdata/Trees/img6.png
Number of ORB Keypoints: 500

Scene: Ubc
Number of ORB Keypoints: 500
Comparing to: ../../testdata/Ubc/img2.png
Number of ORB Keypoints: 500
Comparing to: ../../testdata/Ubc/img3.png
Number of ORB Keypoints: 500
Comparing to: ../../testdata/Ubc/img4.png
Number of ORB Keypoints: 500
Comparing to: ../../testdata/Ubc/img5.png
Number of ORB Keypoints: 500
Comparing to: ../../testdata/Ubc/img6.png
Number of ORB Keypoints: 500

Scene: Wall
Number of ORB Keypoints: 500
Comparing to: ../../testdata/Wall/img2.png
Number of ORB Keypoints: 500
Comparing to: ../../testdata/Wall/img3.png
Number of ORB Keypoints: 500
Comparing to: ../../testdata/Wall/img4.png
Number of ORB Keypoints: 500
Comparing to: ../../testdata/Wall/img5.png
Number of ORB Keypoints: 500
Comparing to: ../../testdata/Wall/img6.png
Number of ORB Keypoints: 500
ORB average percentage of hits: 0
ORB average number of keypoints: 497.267
ORB time taken: 8.814s

Running performance evaluation with BRISK

Scene: Bark
Number of BRISK Keypoints: 466
Comparing to: ../../testdata/Bark/img2.png
Number of BRISK Keypoints: 312
Comparing to: ../../testdata/Bark/img3.png
Number of BRISK Keypoints: 423
Comparing to: ../../testdata/Bark/img4.png
Number of BRISK Keypoints: 705
Comparing to: ../../testdata/Bark/img5.png
Number of BRISK Keypoints: 744
Comparing to: ../../testdata/Bark/img6.png
Number of BRISK Keypoints: 985

Scene: Bikes
Number of BRISK Keypoints: 776
Comparing to: ../../testdata/Bikes/img2.png
Number of BRISK Keypoints: 328
Comparing to: ../../testdata/Bikes/img3.png
Number of BRISK Keypoints: 246
Comparing to: ../../testdata/Bikes/img4.png
Number of BRISK Keypoints: 152
Comparing to: ../../testdata/Bikes/img5.png
Number of BRISK Keypoints: 130
Comparing to: ../../testdata/Bikes/img6.png
Number of BRISK Keypoints: 104

Scene: Boat
Number of BRISK Keypoints: 2420
Comparing to: ../../testdata/Boat/img2.png
Number of BRISK Keypoints: 2427
Comparing to: ../../testdata/Boat/img3.png
Number of BRISK Keypoints: 2097
Comparing to: ../../testdata/Boat/img4.png
Number of BRISK Keypoints: 1437
Comparing to: ../../testdata/Boat/img5.png
Number of BRISK Keypoints: 1175
Comparing to: ../../testdata/Boat/img6.png
Number of BRISK Keypoints: 1357

Scene: Christchurch
Number of BRISK Keypoints: 1250
Comparing to: ../../testdata/Christchurch/img2.png
Number of BRISK Keypoints: 1220
Comparing to: ../../testdata/Christchurch/img3.png
Number of BRISK Keypoints: 1208
Comparing to: ../../testdata/Christchurch/img4.png
Number of BRISK Keypoints: 1172
Comparing to: ../../testdata/Christchurch/img5.png
Number of BRISK Keypoints: 1088
Comparing to: ../../testdata/Christchurch/img6.png
Number of BRISK Keypoints: 1219

Scene: Graf
Number of BRISK Keypoints: 561
Comparing to: ../../testdata/Graf/img2.png
Number of BRISK Keypoints: 667
Comparing to: ../../testdata/Graf/img3.png
Number of BRISK Keypoints: 784
Comparing to: ../../testdata/Graf/img4.png
Number of BRISK Keypoints: 705
Comparing to: ../../testdata/Graf/img5.png
Number of BRISK Keypoints: 716
Comparing to: ../../testdata/Graf/img6.png
Number of BRISK Keypoints: 751

Scene: Leuven
Number of BRISK Keypoints: 887
Comparing to: ../../testdata/Leuven/img2.png
Number of BRISK Keypoints: 699
Comparing to: ../../testdata/Leuven/img3.png
Number of BRISK Keypoints: 559
Comparing to: ../../testdata/Leuven/img4.png
Number of BRISK Keypoints: 498
Comparing to: ../../testdata/Leuven/img5.png
Number of BRISK Keypoints: 402
Comparing to: ../../testdata/Leuven/img6.png
Number of BRISK Keypoints: 294

Scene: Memorial
Number of BRISK Keypoints: 683
Comparing to: ../../testdata/Memorial/img2.png
Number of BRISK Keypoints: 628
Comparing to: ../../testdata/Memorial/img3.png
Number of BRISK Keypoints: 684
Comparing to: ../../testdata/Memorial/img4.png
Number of BRISK Keypoints: 735
Comparing to: ../../testdata/Memorial/img5.png
Number of BRISK Keypoints: 804
Comparing to: ../../testdata/Memorial/img6.png
Number of BRISK Keypoints: 693

Scene: Trees
Number of BRISK Keypoints: 5230
Comparing to: ../../testdata/Trees/img2.png
Number of BRISK Keypoints: 5566
Comparing to: ../../testdata/Trees/img3.png
Number of BRISK Keypoints: 5009
Comparing to: ../../testdata/Trees/img4.png
Number of BRISK Keypoints: 2824
Comparing to: ../../testdata/Trees/img5.png
Number of BRISK Keypoints: 1436
Comparing to: ../../testdata/Trees/img6.png
Number of BRISK Keypoints: 744

Scene: Ubc
Number of BRISK Keypoints: 1767
Comparing to: ../../testdata/Ubc/img2.png
Number of BRISK Keypoints: 1645
Comparing to: ../../testdata/Ubc/img3.png
Number of BRISK Keypoints: 1627
Comparing to: ../../testdata/Ubc/img4.png
Number of BRISK Keypoints: 1617
Comparing to: ../../testdata/Ubc/img5.png
Number of BRISK Keypoints: 1398
Comparing to: ../../testdata/Ubc/img6.png
Number of BRISK Keypoints: 898

Scene: Wall
Number of BRISK Keypoints: 4053
Comparing to: ../../testdata/Wall/img2.png
Number of BRISK Keypoints: 2845
Comparing to: ../../testdata/Wall/img3.png
Number of BRISK Keypoints: 2683
Comparing to: ../../testdata/Wall/img4.png
Number of BRISK Keypoints: 2843
Comparing to: ../../testdata/Wall/img5.png
Number of BRISK Keypoints: 2838
Comparing to: ../../testdata/Wall/img6.png
Number of BRISK Keypoints: 3059
BRISK average percentage of hits: 0
BRISK average number of keypoints: 1387.88
BRISK time taken: 12.843s

Running performance evaluation with MSER

Scene: Bark
Number of MSER Keypoints: 323
Comparing to: ../../testdata/Bark/img2.png
Number of MSER Keypoints: 213
Comparing to: ../../testdata/Bark/img3.png
Number of MSER Keypoints: 300
Comparing to: ../../testdata/Bark/img4.png
Number of MSER Keypoints: 553
Comparing to: ../../testdata/Bark/img5.png
Number of MSER Keypoints: 498
Comparing to: ../../testdata/Bark/img6.png
Number of MSER Keypoints: 523

Scene: Bikes
Number of MSER Keypoints: 545
Comparing to: ../../testdata/Bikes/img2.png
Number of MSER Keypoints: 359
Comparing to: ../../testdata/Bikes/img3.png
Number of MSER Keypoints: 333
Comparing to: ../../testdata/Bikes/img4.png
Number of MSER Keypoints: 255
Comparing to: ../../testdata/Bikes/img5.png
Number of MSER Keypoints: 216
Comparing to: ../../testdata/Bikes/img6.png
Number of MSER Keypoints: 166

Scene: Boat
Number of MSER Keypoints: 214
Comparing to: ../../testdata/Boat/img2.png
Number of MSER Keypoints: 304
Comparing to: ../../testdata/Boat/img3.png
Number of MSER Keypoints: 992
Comparing to: ../../testdata/Boat/img4.png
Number of MSER Keypoints: 114
Comparing to: ../../testdata/Boat/img5.png
Number of MSER Keypoints: 479
Comparing to: ../../testdata/Boat/img6.png
Number of MSER Keypoints: 102

Scene: Christchurch
Number of MSER Keypoints: 291
Comparing to: ../../testdata/Christchurch/img2.png
Number of MSER Keypoints: 296
Comparing to: ../../testdata/Christchurch/img3.png
Number of MSER Keypoints: 315
Comparing to: ../../testdata/Christchurch/img4.png
Number of MSER Keypoints: 296
Comparing to: ../../testdata/Christchurch/img5.png
Number of MSER Keypoints: 252
Comparing to: ../../testdata/Christchurch/img6.png
Number of MSER Keypoints: 300

Scene: Graf
Number of MSER Keypoints: 648
Comparing to: ../../testdata/Graf/img2.png
Number of MSER Keypoints: 748
Comparing to: ../../testdata/Graf/img3.png
Number of MSER Keypoints: 848
Comparing to: ../../testdata/Graf/img4.png
Number of MSER Keypoints: 814
Comparing to: ../../testdata/Graf/img5.png
Number of MSER Keypoints: 853
Comparing to: ../../testdata/Graf/img6.png
Number of MSER Keypoints: 959

Scene: Leuven
Number of MSER Keypoints: 467
Comparing to: ../../testdata/Leuven/img2.png
Number of MSER Keypoints: 380
Comparing to: ../../testdata/Leuven/img3.png
Number of MSER Keypoints: 343
Comparing to: ../../testdata/Leuven/img4.png
Number of MSER Keypoints: 283
Comparing to: ../../testdata/Leuven/img5.png
Number of MSER Keypoints: 237
Comparing to: ../../testdata/Leuven/img6.png
Number of MSER Keypoints: 209

Scene: Memorial
Number of MSER Keypoints: 168
Comparing to: ../../testdata/Memorial/img2.png
Number of MSER Keypoints: 183
Comparing to: ../../testdata/Memorial/img3.png
Number of MSER Keypoints: 195
Comparing to: ../../testdata/Memorial/img4.png
Number of MSER Keypoints: 200
Comparing to: ../../testdata/Memorial/img5.png
Number of MSER Keypoints: 201
Comparing to: ../../testdata/Memorial/img6.png
Number of MSER Keypoints: 201

Scene: Trees
Number of MSER Keypoints: 1957
Comparing to: ../../testdata/Trees/img2.png
Number of MSER Keypoints: 2038
Comparing to: ../../testdata/Trees/img3.png
Number of MSER Keypoints: 1906
Comparing to: ../../testdata/Trees/img4.png
Number of MSER Keypoints: 1668
Comparing to: ../../testdata/Trees/img5.png
Number of MSER Keypoints: 1464
Comparing to: ../../testdata/Trees/img6.png
Number of MSER Keypoints: 1236

Scene: Ubc
Number of MSER Keypoints: 661
Comparing to: ../../testdata/Ubc/img2.png
Number of MSER Keypoints: 637
Comparing to: ../../testdata/Ubc/img3.png
Number of MSER Keypoints: 661
Comparing to: ../../testdata/Ubc/img4.png
Number of MSER Keypoints: 685
Comparing to: ../../testdata/Ubc/img5.png
Number of MSER Keypoints: 769
Comparing to: ../../testdata/Ubc/img6.png
Number of MSER Keypoints: 297

Scene: Wall
Number of MSER Keypoints: 1660
Comparing to: ../../testdata/Wall/img2.png
Number of MSER Keypoints: 1452
Comparing to: ../../testdata/Wall/img3.png
Number of MSER Keypoints: 1409
Comparing to: ../../testdata/Wall/img4.png
Number of MSER Keypoints: 1398
Comparing to: ../../testdata/Wall/img5.png
Number of MSER Keypoints: 1422
Comparing to: ../../testdata/Wall/img6.png
Number of MSER Keypoints: 1357
MSER average percentage of hits: 0
MSER average number of keypoints: 647.55
MSER time taken: 30.633s

Running performance evaluation with GFTT

Scene: Bark
Number of GFTT Keypoints: 1000
Comparing to: ../../testdata/Bark/img2.png
Number of GFTT Keypoints: 1000
Comparing to: ../../testdata/Bark/img3.png
Number of GFTT Keypoints: 1000
Comparing to: ../../testdata/Bark/img4.png
Number of GFTT Keypoints: 1000
Comparing to: ../../testdata/Bark/img5.png
Number of GFTT Keypoints: 1000
Comparing to: ../../testdata/Bark/img6.png
Number of GFTT Keypoints: 1000

Scene: Bikes
Number of GFTT Keypoints: 1000
Comparing to: ../../testdata/Bikes/img2.png
Number of GFTT Keypoints: 1000
Comparing to: ../../testdata/Bikes/img3.png
Number of GFTT Keypoints: 1000
Comparing to: ../../testdata/Bikes/img4.png
Number of GFTT Keypoints: 1000
Comparing to: ../../testdata/Bikes/img5.png
Number of GFTT Keypoints: 1000
Comparing to: ../../testdata/Bikes/img6.png
Number of GFTT Keypoints: 1000

Scene: Boat
Number of GFTT Keypoints: 1000
Comparing to: ../../testdata/Boat/img2.png
Number of GFTT Keypoints: 1000
Comparing to: ../../testdata/Boat/img3.png
Number of GFTT Keypoints: 1000
Comparing to: ../../testdata/Boat/img4.png
Number of GFTT Keypoints: 1000
Comparing to: ../../testdata/Boat/img5.png
Number of GFTT Keypoints: 1000
Comparing to: ../../testdata/Boat/img6.png
Number of GFTT Keypoints: 1000

Scene: Christchurch
Number of GFTT Keypoints: 1000
Comparing to: ../../testdata/Christchurch/img2.png
Number of GFTT Keypoints: 1000
Comparing to: ../../testdata/Christchurch/img3.png
Number of GFTT Keypoints: 1000
Comparing to: ../../testdata/Christchurch/img4.png
Number of GFTT Keypoints: 1000
Comparing to: ../../testdata/Christchurch/img5.png
Number of GFTT Keypoints: 1000
Comparing to: ../../testdata/Christchurch/img6.png
Number of GFTT Keypoints: 1000

Scene: Graf
Number of GFTT Keypoints: 1000
Comparing to: ../../testdata/Graf/img2.png
Number of GFTT Keypoints: 1000
Comparing to: ../../testdata/Graf/img3.png
Number of GFTT Keypoints: 1000
Comparing to: ../../testdata/Graf/img4.png
Number of GFTT Keypoints: 1000
Comparing to: ../../testdata/Graf/img5.png
Number of GFTT Keypoints: 1000
Comparing to: ../../testdata/Graf/img6.png
Number of GFTT Keypoints: 1000

Scene: Leuven
Number of GFTT Keypoints: 1000
Comparing to: ../../testdata/Leuven/img2.png
Number of GFTT Keypoints: 1000
Comparing to: ../../testdata/Leuven/img3.png
Number of GFTT Keypoints: 1000
Comparing to: ../../testdata/Leuven/img4.png
Number of GFTT Keypoints: 1000
Comparing to: ../../testdata/Leuven/img5.png
Number of GFTT Keypoints: 1000
Comparing to: ../../testdata/Leuven/img6.png
Number of GFTT Keypoints: 1000

Scene: Memorial
Number of GFTT Keypoints: 1000
Comparing to: ../../testdata/Memorial/img2.png
Number of GFTT Keypoints: 1000
Comparing to: ../../testdata/Memorial/img3.png
Number of GFTT Keypoints: 1000
Comparing to: ../../testdata/Memorial/img4.png
Number of GFTT Keypoints: 1000
Comparing to: ../../testdata/Memorial/img5.png
Number of GFTT Keypoints: 1000
Comparing to: ../../testdata/Memorial/img6.png
Number of GFTT Keypoints: 1000

Scene: Trees
Number of GFTT Keypoints: 1000
Comparing to: ../../testdata/Trees/img2.png
Number of GFTT Keypoints: 1000
Comparing to: ../../testdata/Trees/img3.png
Number of GFTT Keypoints: 1000
Comparing to: ../../testdata/Trees/img4.png
Number of GFTT Keypoints: 1000
Comparing to: ../../testdata/Trees/img5.png
Number of GFTT Keypoints: 1000
Comparing to: ../../testdata/Trees/img6.png
Number of GFTT Keypoints: 1000

Scene: Ubc
Number of GFTT Keypoints: 1000
Comparing to: ../../testdata/Ubc/img2.png
Number of GFTT Keypoints: 1000
Comparing to: ../../testdata/Ubc/img3.png
Number of GFTT Keypoints: 1000
Comparing to: ../../testdata/Ubc/img4.png
Number of GFTT Keypoints: 1000
Comparing to: ../../testdata/Ubc/img5.png
Number of GFTT Keypoints: 1000
Comparing to: ../../testdata/Ubc/img6.png
Number of GFTT Keypoints: 1000

Scene: Wall
Number of GFTT Keypoints: 1000
Comparing to: ../../testdata/Wall/img2.png
Number of GFTT Keypoints: 1000
Comparing to: ../../testdata/Wall/img3.png
Number of GFTT Keypoints: 1000
Comparing to: ../../testdata/Wall/img4.png
Number of GFTT Keypoints: 1000
Comparing to: ../../testdata/Wall/img5.png
Number of GFTT Keypoints: 1000
Comparing to: ../../testdata/Wall/img6.png
Number of GFTT Keypoints: 1000
GFTT average percentage of hits: 0
GFTT average number of keypoints: 1000
GFTT time taken: 54.399s

Running performance evaluation with HARRIS

Scene: Bark
Number of HARRIS Keypoints: 1000
Comparing to: ../../testdata/Bark/img2.png
Number of HARRIS Keypoints: 1000
Comparing to: ../../testdata/Bark/img3.png
Number of HARRIS Keypoints: 1000
Comparing to: ../../testdata/Bark/img4.png
Number of HARRIS Keypoints: 1000
Comparing to: ../../testdata/Bark/img5.png
Number of HARRIS Keypoints: 1000
Comparing to: ../../testdata/Bark/img6.png
Number of HARRIS Keypoints: 1000

Scene: Bikes
Number of HARRIS Keypoints: 1000
Comparing to: ../../testdata/Bikes/img2.png
Number of HARRIS Keypoints: 302
Comparing to: ../../testdata/Bikes/img3.png
Number of HARRIS Keypoints: 257
Comparing to: ../../testdata/Bikes/img4.png
Number of HARRIS Keypoints: 434
Comparing to: ../../testdata/Bikes/img5.png
Number of HARRIS Keypoints: 366
Comparing to: ../../testdata/Bikes/img6.png
Number of HARRIS Keypoints: 330

Scene: Boat
Number of HARRIS Keypoints: 1000
Comparing to: ../../testdata/Boat/img2.png
Number of HARRIS Keypoints: 1000
Comparing to: ../../testdata/Boat/img3.png
Number of HARRIS Keypoints: 1000
Comparing to: ../../testdata/Boat/img4.png
Number of HARRIS Keypoints: 1000
Comparing to: ../../testdata/Boat/img5.png
Number of HARRIS Keypoints: 1000
Comparing to: ../../testdata/Boat/img6.png
Number of HARRIS Keypoints: 1000

Scene: Christchurch
Number of HARRIS Keypoints: 1000
Comparing to: ../../testdata/Christchurch/img2.png
Number of HARRIS Keypoints: 1000
Comparing to: ../../testdata/Christchurch/img3.png
Number of HARRIS Keypoints: 1000
Comparing to: ../../testdata/Christchurch/img4.png
Number of HARRIS Keypoints: 1000
Comparing to: ../../testdata/Christchurch/img5.png
Number of HARRIS Keypoints: 1000
Comparing to: ../../testdata/Christchurch/img6.png
Number of HARRIS Keypoints: 1000

Scene: Graf
Number of HARRIS Keypoints: 849
Comparing to: ../../testdata/Graf/img2.png
Number of HARRIS Keypoints: 1000
Comparing to: ../../testdata/Graf/img3.png
Number of HARRIS Keypoints: 1000
Comparing to: ../../testdata/Graf/img4.png
Number of HARRIS Keypoints: 1000
Comparing to: ../../testdata/Graf/img5.png
Number of HARRIS Keypoints: 1000
Comparing to: ../../testdata/Graf/img6.png
Number of HARRIS Keypoints: 1000

Scene: Leuven
Number of HARRIS Keypoints: 1000
Comparing to: ../../testdata/Leuven/img2.png
Number of HARRIS Keypoints: 1000
Comparing to: ../../testdata/Leuven/img3.png
Number of HARRIS Keypoints: 1000
Comparing to: ../../testdata/Leuven/img4.png
Number of HARRIS Keypoints: 897
Comparing to: ../../testdata/Leuven/img5.png
Number of HARRIS Keypoints: 852
Comparing to: ../../testdata/Leuven/img6.png
Number of HARRIS Keypoints: 661

Scene: Memorial
Number of HARRIS Keypoints: 1000
Comparing to: ../../testdata/Memorial/img2.png
Number of HARRIS Keypoints: 1000
Comparing to: ../../testdata/Memorial/img3.png
Number of HARRIS Keypoints: 1000
Comparing to: ../../testdata/Memorial/img4.png
Number of HARRIS Keypoints: 901
Comparing to: ../../testdata/Memorial/img5.png
Number of HARRIS Keypoints: 1000
Comparing to: ../../testdata/Memorial/img6.png
Number of HARRIS Keypoints: 1000

Scene: Trees
Number of HARRIS Keypoints: 1000
Comparing to: ../../testdata/Trees/img2.png
Number of HARRIS Keypoints: 1000
Comparing to: ../../testdata/Trees/img3.png
Number of HARRIS Keypoints: 1000
Comparing to: ../../testdata/Trees/img4.png
Number of HARRIS Keypoints: 1000
Comparing to: ../../testdata/Trees/img5.png
Number of HARRIS Keypoints: 1000
Comparing to: ../../testdata/Trees/img6.png
Number of HARRIS Keypoints: 1000

Scene: Ubc
Number of HARRIS Keypoints: 1000
Comparing to: ../../testdata/Ubc/img2.png
Number of HARRIS Keypoints: 1000
Comparing to: ../../testdata/Ubc/img3.png
Number of HARRIS Keypoints: 1000
Comparing to: ../../testdata/Ubc/img4.png
Number of HARRIS Keypoints: 1000
Comparing to: ../../testdata/Ubc/img5.png
Number of HARRIS Keypoints: 1000
Comparing to: ../../testdata/Ubc/img6.png
Number of HARRIS Keypoints: 1000

Scene: Wall
Number of HARRIS Keypoints: 1000
Comparing to: ../../testdata/Wall/img2.png
Number of HARRIS Keypoints: 1000
Comparing to: ../../testdata/Wall/img3.png
Number of HARRIS Keypoints: 1000
Comparing to: ../../testdata/Wall/img4.png
Number of HARRIS Keypoints: 1000
Comparing to: ../../testdata/Wall/img5.png
Number of HARRIS Keypoints: 1000
Comparing to: ../../testdata/Wall/img6.png
Number of HARRIS Keypoints: 1000
HARRIS average percentage of hits: 0
HARRIS average number of keypoints: 930.817
HARRIS time taken: 54.282s

Running performance evaluation with Dense

Scene: Bark
Number of Dense Keypoints: 11008
Comparing to: ../../testdata/Bark/img2.png
Number of Dense Keypoints: 11008
Comparing to: ../../testdata/Bark/img3.png
Number of Dense Keypoints: 11008
Comparing to: ../../testdata/Bark/img4.png
Number of Dense Keypoints: 11008
Comparing to: ../../testdata/Bark/img5.png
Number of Dense Keypoints: 11008
Comparing to: ../../testdata/Bark/img6.png
Number of Dense Keypoints: 11008

Scene: Bikes
Number of Dense Keypoints: 19539
Comparing to: ../../testdata/Bikes/img2.png
Number of Dense Keypoints: 19539
Comparing to: ../../testdata/Bikes/img3.png
Number of Dense Keypoints: 19539
Comparing to: ../../testdata/Bikes/img4.png
Number of Dense Keypoints: 19539
Comparing to: ../../testdata/Bikes/img5.png
Number of Dense Keypoints: 19539
Comparing to: ../../testdata/Bikes/img6.png
Number of Dense Keypoints: 19539

Scene: Boat
Number of Dense Keypoints: 16188
Comparing to: ../../testdata/Boat/img2.png
Number of Dense Keypoints: 16188
Comparing to: ../../testdata/Boat/img3.png
Number of Dense Keypoints: 16188
Comparing to: ../../testdata/Boat/img4.png
Number of Dense Keypoints: 16188
Comparing to: ../../testdata/Boat/img5.png
Number of Dense Keypoints: 16188
Comparing to: ../../testdata/Boat/img6.png
Number of Dense Keypoints: 16188

Scene: Christchurch
Number of Dense Keypoints: 20708
Comparing to: ../../testdata/Christchurch/img2.png
Number of Dense Keypoints: 20708
Comparing to: ../../testdata/Christchurch/img3.png
Number of Dense Keypoints: 20708
Comparing to: ../../testdata/Christchurch/img4.png
Number of Dense Keypoints: 20708
Comparing to: ../../testdata/Christchurch/img5.png
Number of Dense Keypoints: 20708
Comparing to: ../../testdata/Christchurch/img6.png
Number of Dense Keypoints: 20708

Scene: Graf
Number of Dense Keypoints: 14338
Comparing to: ../../testdata/Graf/img2.png
Number of Dense Keypoints: 14338
Comparing to: ../../testdata/Graf/img3.png
Number of Dense Keypoints: 14338
Comparing to: ../../testdata/Graf/img4.png
Number of Dense Keypoints: 14338
Comparing to: ../../testdata/Graf/img5.png
Number of Dense Keypoints: 14338
Comparing to: ../../testdata/Graf/img6.png
Number of Dense Keypoints: 14338

Scene: Leuven
Number of Dense Keypoints: 15000
Comparing to: ../../testdata/Leuven/img2.png
Number of Dense Keypoints: 15000
Comparing to: ../../testdata/Leuven/img3.png
Number of Dense Keypoints: 15000
Comparing to: ../../testdata/Leuven/img4.png
Number of Dense Keypoints: 15000
Comparing to: ../../testdata/Leuven/img5.png
Number of Dense Keypoints: 15000
Comparing to: ../../testdata/Leuven/img6.png
Number of Dense Keypoints: 15000

Scene: Memorial
Number of Dense Keypoints: 21042
Comparing to: ../../testdata/Memorial/img2.png
Number of Dense Keypoints: 21042
Comparing to: ../../testdata/Memorial/img3.png
Number of Dense Keypoints: 21042
Comparing to: ../../testdata/Memorial/img4.png
Number of Dense Keypoints: 21042
Comparing to: ../../testdata/Memorial/img5.png
Number of Dense Keypoints: 21042
Comparing to: ../../testdata/Memorial/img6.png
Number of Dense Keypoints: 21042

Scene: Trees
Number of Dense Keypoints: 19539
Comparing to: ../../testdata/Trees/img2.png
Number of Dense Keypoints: 19539
Comparing to: ../../testdata/Trees/img3.png
Number of Dense Keypoints: 19539
Comparing to: ../../testdata/Trees/img4.png
Number of Dense Keypoints: 19539
Comparing to: ../../testdata/Trees/img5.png
Number of Dense Keypoints: 19539
Comparing to: ../../testdata/Trees/img6.png
Number of Dense Keypoints: 19539

Scene: Ubc
Number of Dense Keypoints: 14338
Comparing to: ../../testdata/Ubc/img2.png
Number of Dense Keypoints: 14338
Comparing to: ../../testdata/Ubc/img3.png
Number of Dense Keypoints: 14338
Comparing to: ../../testdata/Ubc/img4.png
Number of Dense Keypoints: 14338
Comparing to: ../../testdata/Ubc/img5.png
Number of Dense Keypoints: 14338
Comparing to: ../../testdata/Ubc/img6.png
Number of Dense Keypoints: 14338

Scene: Wall
Number of Dense Keypoints: 19539
Comparing to: ../../testdata/Wall/img2.png
Number of Dense Keypoints: 16758
Comparing to: ../../testdata/Wall/img3.png
Number of Dense Keypoints: 16758
Comparing to: ../../testdata/Wall/img4.png
Number of Dense Keypoints: 16758
Comparing to: ../../testdata/Wall/img5.png
Number of Dense Keypoints: 16758
Comparing to: ../../testdata/Wall/img6.png
Number of Dense Keypoints: 16758
Dense average percentage of hits: 0
Dense average number of keypoints: 16892.2
Dense time taken: 4.207s

Running performance evaluation with SimpleBlob

Scene: Bark
Number of SimpleBlob Keypoints: 1
Comparing to: ../../testdata/Bark/img2.png
Number of SimpleBlob Keypoints: 2
Comparing to: ../../testdata/Bark/img3.png
Number of SimpleBlob Keypoints: 2
Comparing to: ../../testdata/Bark/img4.png
Number of SimpleBlob Keypoints: 1
Comparing to: ../../testdata/Bark/img5.png
Number of SimpleBlob Keypoints: 3
Comparing to: ../../testdata/Bark/img6.png
Number of SimpleBlob Keypoints: 1

Scene: Bikes
Number of SimpleBlob Keypoints: 11
Comparing to: ../../testdata/Bikes/img2.png
Number of SimpleBlob Keypoints: 16
Comparing to: ../../testdata/Bikes/img3.png
Number of SimpleBlob Keypoints: 16
Comparing to: ../../testdata/Bikes/img4.png
Number of SimpleBlob Keypoints: 16
Comparing to: ../../testdata/Bikes/img5.png
Number of SimpleBlob Keypoints: 11
Comparing to: ../../testdata/Bikes/img6.png
Number of SimpleBlob Keypoints: 8

Scene: Boat
Number of SimpleBlob Keypoints: 24
Comparing to: ../../testdata/Boat/img2.png
Number of SimpleBlob Keypoints: 18
Comparing to: ../../testdata/Boat/img3.png
Number of SimpleBlob Keypoints: 15
Comparing to: ../../testdata/Boat/img4.png
Number of SimpleBlob Keypoints: 7
Comparing to: ../../testdata/Boat/img5.png
Number of SimpleBlob Keypoints: 9
Comparing to: ../../testdata/Boat/img6.png
Number of SimpleBlob Keypoints: 11

Scene: Christchurch
Number of SimpleBlob Keypoints: 10
Comparing to: ../../testdata/Christchurch/img2.png
Number of SimpleBlob Keypoints: 5
Comparing to: ../../testdata/Christchurch/img3.png
Number of SimpleBlob Keypoints: 5
Comparing to: ../../testdata/Christchurch/img4.png
Number of SimpleBlob Keypoints: 3
Comparing to: ../../testdata/Christchurch/img5.png
Number of SimpleBlob Keypoints: 2
Comparing to: ../../testdata/Christchurch/img6.png
Number of SimpleBlob Keypoints: 4

Scene: Graf
Number of SimpleBlob Keypoints: 3
Comparing to: ../../testdata/Graf/img2.png
Number of SimpleBlob Keypoints: 7
Comparing to: ../../testdata/Graf/img3.png
Number of SimpleBlob Keypoints: 2
Comparing to: ../../testdata/Graf/img4.png
Number of SimpleBlob Keypoints: 4
Comparing to: ../../testdata/Graf/img5.png
Number of SimpleBlob Keypoints: 4
Comparing to: ../../testdata/Graf/img6.png
Number of SimpleBlob Keypoints: 1

Scene: Leuven
Number of SimpleBlob Keypoints: 26
Comparing to: ../../testdata/Leuven/img2.png
Number of SimpleBlob Keypoints: 17
Comparing to: ../../testdata/Leuven/img3.png
Number of SimpleBlob Keypoints: 12
Comparing to: ../../testdata/Leuven/img4.png
Number of SimpleBlob Keypoints: 10
Comparing to: ../../testdata/Leuven/img5.png
Number of SimpleBlob Keypoints: 5
Comparing to: ../../testdata/Leuven/img6.png
Number of SimpleBlob Keypoints: 6

Scene: Memorial
Number of SimpleBlob Keypoints: 12
Comparing to: ../../testdata/Memorial/img2.png
Number of SimpleBlob Keypoints: 11
Comparing to: ../../testdata/Memorial/img3.png
Number of SimpleBlob Keypoints: 8
Comparing to: ../../testdata/Memorial/img4.png
Number of SimpleBlob Keypoints: 4
Comparing to: ../../testdata/Memorial/img5.png
Number of SimpleBlob Keypoints: 5
Comparing to: ../../testdata/Memorial/img6.png
Number of SimpleBlob Keypoints: 7

Scene: Trees
Number of SimpleBlob Keypoints: 12
Comparing to: ../../testdata/Trees/img2.png
Number of SimpleBlob Keypoints: 15
Comparing to: ../../testdata/Trees/img3.png
Number of SimpleBlob Keypoints: 24
Comparing to: ../../testdata/Trees/img4.png
Number of SimpleBlob Keypoints: 23
Comparing to: ../../testdata/Trees/img5.png
Number of SimpleBlob Keypoints: 23
Comparing to: ../../testdata/Trees/img6.png
Number of SimpleBlob Keypoints: 15

Scene: Ubc
Number of SimpleBlob Keypoints: 18
Comparing to: ../../testdata/Ubc/img2.png
Number of SimpleBlob Keypoints: 20
Comparing to: ../../testdata/Ubc/img3.png
Number of SimpleBlob Keypoints: 18
Comparing to: ../../testdata/Ubc/img4.png
Number of SimpleBlob Keypoints: 34
Comparing to: ../../testdata/Ubc/img5.png
Number of SimpleBlob Keypoints: 76
Comparing to: ../../testdata/Ubc/img6.png
Number of SimpleBlob Keypoints: 164

Scene: Wall
Number of SimpleBlob Keypoints: 7
Comparing to: ../../testdata/Wall/img2.png
Number of SimpleBlob Keypoints: 10
Comparing to: ../../testdata/Wall/img3.png
Number of SimpleBlob Keypoints: 6
Comparing to: ../../testdata/Wall/img4.png
Number of SimpleBlob Keypoints: 7
Comparing to: ../../testdata/Wall/img5.png
Number of SimpleBlob Keypoints: 11
Comparing to: ../../testdata/Wall/img6.png
Number of SimpleBlob Keypoints: 7
SimpleBlob average percentage of hits: 0
SimpleBlob average number of keypoints: 13.9167
SimpleBlob time taken: 30.836s
Total run-time: 383.031s